# Blender MTL File: 'Bike.blend'
# Material Count: 1

newmtl Tissu_selle
Ns 225.000000
Ka 1.000000 1.000000 1.000000
Kd 0.085233 0.085233 0.085233
Ks 0.500000 0.500000 0.500000
Ke 0.000000 0.000000 0.000000
Ni 1.450000
d 1.000000
illum 2
map_Ns G:\\INVISUAL 3D\\ASSETS MANAGER\\MATERIALS\\Tissus\\cgaxis_pbr_14_patterned_fabric_15\\cgaxis_pbr_14_patterned_fabric_15_glossiness.jpg
