# Blender v2.81 (sub 16) OBJ File: 'Bike.blend'
# www.blender.org
mtllib batterie.mtl
o Cube.001
v -0.111324 0.439568 -0.951304
v -0.111324 0.670318 -0.951229
v 0.111324 0.439568 -0.951304
v 0.111324 0.670318 -0.951229
v -0.045359 0.522850 -1.923014
v -0.122814 0.438189 -1.767433
v -0.083432 0.483595 -1.910106
v -0.111618 0.451098 -1.876283
v -0.045359 0.586237 -1.923014
v -0.122814 0.671331 -1.767429
v -0.083432 0.625648 -1.910106
v -0.111618 0.658344 -1.876283
v 0.045359 0.522850 -1.923014
v 0.122814 0.438189 -1.767433
v 0.083432 0.483595 -1.910106
v 0.111618 0.451098 -1.876283
v 0.122814 0.671331 -1.767429
v 0.045359 0.586237 -1.923014
v 0.111618 0.658344 -1.876283
v 0.083432 0.625648 -1.910106
v -0.123693 0.437176 -1.063396
v 0.123693 0.437176 -1.063396
v -0.123693 0.672351 -1.063327
v 0.123693 0.672351 -1.063327
v -0.123693 0.555122 -0.948974
v 0.123693 0.555122 -0.948974
v 0.000000 0.437176 -0.949279
v 0.000000 0.672351 -0.949195
v -0.064620 0.603827 -1.918265
v -0.048867 0.554590 -1.923542
v -0.064620 0.505283 -1.918265
v -0.100118 0.554838 -1.910106
v -0.098726 0.643389 -1.894636
v -0.098726 0.465961 -1.894636
v -0.133942 0.555037 -1.876283
v -0.118417 0.666231 -1.853709
v -0.118417 0.443259 -1.853709
v -0.147377 0.555116 -1.767421
v 0.118417 0.443259 -1.853709
v 0.000000 0.433446 -1.767435
v 0.000000 0.446881 -1.876283
v 0.098726 0.465961 -1.894636
v 0.000000 0.480704 -1.910106
v 0.064620 0.505283 -1.918266
v 0.000000 0.524048 -1.923541
v 0.000000 0.675363 -1.767431
v 0.118417 0.666231 -1.853709
v 0.000000 0.661928 -1.876283
v 0.098726 0.643389 -1.894636
v -0.000000 0.628105 -1.910106
v 0.064620 0.603827 -1.918266
v -0.000000 0.584923 -1.923542
v 0.147377 0.555116 -1.767421
v 0.133942 0.555037 -1.876283
v 0.100118 0.554838 -1.910106
v 0.048867 0.554590 -1.923542
v -0.123693 0.437176 -1.424557
v 0.123693 0.437176 -0.969916
v -0.123693 0.672351 -1.424531
v 0.123693 0.672351 -1.424531
v -0.123693 0.437176 -0.969916
v 0.123693 0.437176 -1.424557
v -0.123693 0.672351 -0.969834
v 0.123693 0.672351 -0.969834
v 0.000000 0.432391 -1.063447
v 0.148432 0.555122 -1.063144
v -0.148432 0.555122 -1.063144
v 0.000000 0.676419 -1.063363
v 0.000000 0.676419 -1.424545
v -0.148432 0.555122 -0.969617
v 0.148432 0.555122 -1.424464
v 0.000000 0.432391 -1.424576
v 0.000000 0.432391 -0.969975
v 0.077544 0.554705 -1.918265
v 0.118471 0.554946 -1.894636
v 0.142101 0.555085 -1.853709
v -0.000000 0.605531 -1.918265
v 0.000000 0.646458 -1.894636
v 0.000000 0.670087 -1.853709
v 0.000000 0.503278 -1.918265
v 0.000000 0.462351 -1.894636
v 0.000000 0.438722 -1.853709
v -0.142101 0.555085 -1.853709
v -0.118471 0.554946 -1.894636
v -0.077544 0.554705 -1.918265
v 0.148432 0.555122 -0.969617
v -0.148432 0.555122 -1.424464
v -0.000000 0.555122 -0.944862
v 0.000000 0.676418 -0.969877
v 0.000000 0.554566 -1.924597
v 0.123693 0.471866 -0.949035
v -0.048867 0.533140 -1.923542
v 0.147377 0.472580 -1.767423
v 0.148432 0.471866 -1.063194
v -0.148432 0.471866 -1.063194
v -0.123693 0.471866 -0.949035
v -0.100118 0.504549 -1.910106
v -0.133942 0.481668 -1.876283
v -0.147377 0.472580 -1.767424
v 0.133942 0.481668 -1.876283
v 0.100118 0.504549 -1.910106
v 0.048867 0.533140 -1.923541
v -0.148432 0.471866 -0.969677
v 0.148432 0.471866 -1.424482
v 0.077544 0.519819 -1.918265
v 0.118471 0.492133 -1.894636
v 0.142101 0.476149 -1.853709
v -0.142101 0.476149 -1.853709
v -0.118471 0.492133 -1.894636
v -0.077544 0.519819 -1.918265
v 0.148432 0.471866 -0.969677
v -0.148432 0.471866 -1.424482
v -0.000000 0.471866 -0.944923
v 0.000000 0.535804 -1.924597
v -0.123693 0.639814 -0.949018
v -0.100118 0.605995 -1.910106
v -0.133942 0.629671 -1.876283
v -0.147377 0.639076 -1.767423
v 0.133942 0.629671 -1.876283
v 0.100118 0.605995 -1.910106
v 0.048867 0.576409 -1.923542
v 0.123693 0.639814 -0.949018
v -0.048867 0.576409 -1.923542
v 0.147377 0.639076 -1.767423
v 0.148432 0.639814 -1.063180
v -0.148432 0.639814 -1.063180
v -0.148432 0.639814 -0.969661
v 0.148432 0.639814 -1.424477
v 0.077544 0.590193 -1.918265
v 0.118471 0.618842 -1.894636
v 0.142101 0.635382 -1.853709
v -0.142101 0.635382 -1.853709
v -0.118471 0.618842 -1.894636
v -0.077544 0.590193 -1.918265
v 0.148432 0.639814 -0.969661
v -0.148432 0.639814 -1.424477
v -0.000000 0.639814 -0.944907
v -0.000000 0.573652 -1.924597
v -0.121575 0.661920 -0.949456
v 0.121575 0.448999 -0.949505
v 0.069520 0.437585 -0.949626
v -0.069520 0.672003 -0.949543
v -0.054639 0.593052 -1.921231
v -0.048280 0.526909 -1.923451
v -0.074356 0.494059 -1.914871
v -0.098033 0.619506 -1.910106
v -0.091409 0.634901 -1.903057
v -0.105743 0.457871 -1.885855
v -0.131151 0.649384 -1.876283
v -0.115589 0.662950 -1.865392
v -0.120945 0.440344 -1.834064
v -0.144307 0.661251 -1.767426
v 0.120945 0.440344 -1.834064
v -0.070618 0.434039 -1.767435
v 0.064180 0.447408 -1.876283
v 0.105743 0.457871 -1.885855
v 0.047973 0.481066 -1.910106
v 0.074356 0.494059 -1.914871
v 0.027444 0.523839 -1.923451
v 0.070618 0.674859 -1.767431
v 0.115589 0.662950 -1.865392
v -0.064180 0.661480 -1.876283
v 0.091409 0.634901 -1.903057
v -0.047973 0.627798 -1.910106
v 0.054639 0.593052 -1.921231
v -0.027444 0.585151 -1.923451
v 0.144307 0.449603 -1.767428
v 0.131151 0.649384 -1.876283
v 0.098033 0.619506 -1.910106
v 0.048280 0.582444 -1.923451
v -0.123584 0.437302 -1.621741
v 0.121575 0.437585 -0.958286
v -0.123584 0.672224 -1.621731
v 0.123584 0.672224 -1.621731
v -0.123693 0.437176 -0.990974
v 0.123693 0.437176 -1.220580
v -0.123693 0.672351 -0.990895
v 0.123693 0.672351 -0.990895
v -0.071124 0.432989 -1.063441
v 0.145340 0.448689 -1.063295
v -0.145340 0.448689 -1.063295
v 0.071124 0.675910 -1.063359
v -0.123693 0.509188 -0.948982
v 0.123693 0.601775 -0.948979
v -0.069520 0.437585 -0.949625
v 0.069520 0.672003 -0.949544
v -0.074356 0.615120 -1.914871
v -0.048867 0.566609 -1.923542
v -0.054639 0.516006 -1.921231
v -0.100118 0.527092 -1.910106
v -0.105743 0.651529 -1.885855
v -0.091409 0.474398 -1.903057
v -0.133942 0.514558 -1.876283
v -0.120945 0.669164 -1.834063
v -0.115589 0.446520 -1.865392
v -0.147377 0.509579 -1.767422
v 0.115589 0.446520 -1.865392
v 0.070618 0.434039 -1.767435
v -0.064180 0.447408 -1.876283
v 0.091409 0.474398 -1.903057
v -0.047973 0.481066 -1.910106
v 0.054639 0.516006 -1.921231
v -0.027444 0.523839 -1.923451
v -0.070618 0.674859 -1.767431
v 0.120945 0.669164 -1.834063
v 0.064180 0.661480 -1.876283
v 0.105743 0.651529 -1.885855
v 0.047973 0.627798 -1.910106
v 0.074356 0.615120 -1.914871
v 0.027444 0.585151 -1.923451
v 0.147377 0.601365 -1.767422
v 0.133942 0.514558 -1.876283
v 0.100118 0.527092 -1.910106
v 0.048867 0.542755 -1.923542
v -0.123693 0.437176 -1.220580
v 0.123693 0.437176 -0.990974
v -0.123693 0.672351 -1.220531
v 0.123693 0.672351 -1.220531
v -0.121575 0.437585 -0.958286
v 0.123584 0.437302 -1.621741
v -0.121575 0.672003 -0.958204
v 0.121575 0.672003 -0.958204
v 0.071124 0.432989 -1.063441
v 0.148432 0.601775 -1.063148
v -0.148432 0.601775 -1.063148
v -0.071124 0.675910 -1.063359
v 0.000000 0.676418 -1.220557
v 0.000000 0.676287 -1.621736
v 0.071124 0.675910 -1.424543
v -0.071124 0.675910 -1.424543
v -0.148432 0.555122 -0.990686
v -0.145340 0.555122 -0.957722
v -0.145340 0.448689 -0.969796
v -0.148432 0.601775 -0.969623
v 0.148432 0.555122 -1.220403
v 0.148300 0.555122 -1.621703
v 0.145340 0.448689 -1.424520
v 0.148432 0.601775 -1.424466
v 0.000000 0.432391 -1.220615
v 0.000000 0.432523 -1.621749
v -0.071124 0.432989 -1.424573
v 0.071124 0.432989 -1.424573
v 0.000000 0.432989 -0.958077
v 0.000000 0.432391 -0.991032
v -0.071124 0.432989 -0.969968
v 0.071124 0.432989 -0.969968
v 0.065099 0.554639 -1.921299
v 0.089227 0.554774 -1.914871
v 0.075929 0.599566 -1.918265
v 0.077544 0.535458 -1.918265
v 0.109691 0.554895 -1.903057
v 0.126892 0.554996 -1.885855
v 0.116003 0.635718 -1.894636
v 0.118471 0.520291 -1.894636
v 0.138706 0.555065 -1.865392
v 0.145135 0.555103 -1.834062
v 0.139140 0.656591 -1.853709
v 0.142101 0.511534 -1.853709
v -0.000000 0.594094 -1.921299
v -0.000000 0.617213 -1.914871
v -0.037157 0.605318 -1.918265
v 0.037157 0.605318 -1.918265
v -0.000000 0.637677 -1.903057
v 0.000000 0.654878 -1.885855
v -0.056768 0.646074 -1.894636
v 0.056768 0.646074 -1.894636
v 0.000000 0.666693 -1.865392
v 0.000000 0.673121 -1.834064
v -0.068090 0.669605 -1.853709
v 0.068090 0.669605 -1.853709
v 0.000000 0.514736 -1.921299
v 0.000000 0.491596 -1.914871
v 0.037157 0.503529 -1.918265
v -0.037157 0.503529 -1.918265
v 0.000000 0.471132 -1.903057
v 0.000000 0.453931 -1.885855
v 0.056768 0.462803 -1.894636
v -0.056768 0.462803 -1.894636
v 0.000000 0.442116 -1.865392
v 0.000000 0.435688 -1.834064
v 0.068090 0.439289 -1.853709
v -0.068090 0.439289 -1.853709
v -0.145134 0.555103 -1.834062
v -0.138706 0.555065 -1.865392
v -0.139140 0.656591 -1.853709
v -0.142101 0.511534 -1.853709
v -0.126892 0.554996 -1.885855
v -0.109691 0.554895 -1.903057
v -0.116003 0.635718 -1.894636
v -0.118471 0.520291 -1.894636
v -0.089227 0.554774 -1.914871
v -0.065099 0.554639 -1.921299
v -0.075929 0.599566 -1.918265
v -0.077544 0.535458 -1.918265
v 0.145340 0.555122 -0.957722
v 0.148432 0.555122 -0.990686
v 0.145340 0.448689 -0.969796
v 0.148432 0.601775 -0.969623
v -0.148300 0.555122 -1.621703
v -0.148432 0.555122 -1.220403
v -0.145340 0.448689 -1.424520
v -0.148432 0.601775 -1.424465
v -0.071124 0.555122 -0.945376
v 0.071124 0.555122 -0.945376
v -0.000000 0.448689 -0.945559
v 0.000000 0.601775 -0.944868
v 0.000000 0.675910 -0.957980
v 0.000000 0.676418 -0.990937
v 0.071124 0.675910 -0.969871
v -0.071124 0.675910 -0.969872
v 0.026327 0.554569 -1.924465
v -0.026327 0.554569 -1.924465
v 0.000000 0.530088 -1.924465
v -0.000000 0.565080 -1.924597
v 0.123693 0.509188 -0.948982
v -0.048867 0.542755 -1.923542
v 0.147377 0.509579 -1.767422
v 0.148432 0.509188 -1.063150
v -0.148432 0.509188 -1.063150
v -0.121575 0.448999 -0.949505
v -0.098033 0.490549 -1.910106
v -0.131151 0.461244 -1.876283
v -0.144307 0.449603 -1.767428
v 0.131151 0.461244 -1.876283
v 0.098033 0.490549 -1.910106
v 0.048280 0.526909 -1.923451
v -0.148432 0.509188 -0.969625
v 0.148432 0.509188 -1.424466
v 0.075929 0.510108 -1.918265
v 0.116003 0.474648 -1.894636
v 0.139140 0.454175 -1.853709
v -0.139140 0.454175 -1.853709
v -0.116003 0.474648 -1.894636
v -0.075929 0.510108 -1.918265
v 0.148432 0.509188 -0.969625
v -0.148432 0.509188 -1.424466
v 0.000000 0.509188 -0.944870
v 0.000000 0.544215 -1.924597
v -0.026327 0.535471 -1.924465
v 0.026327 0.535471 -1.924465
v 0.071124 0.471866 -0.945437
v -0.071124 0.471866 -0.945437
v -0.148432 0.471866 -1.220439
v -0.148300 0.471955 -1.621711
v 0.148432 0.471866 -0.990743
v 0.145340 0.471866 -0.957783
v -0.065099 0.527479 -1.921299
v -0.109691 0.498073 -1.903057
v -0.138706 0.478445 -1.865392
v 0.145135 0.474097 -1.834063
v 0.126892 0.486437 -1.885855
v 0.089227 0.511916 -1.914871
v 0.148300 0.471955 -1.621711
v 0.148432 0.471866 -1.220439
v -0.145340 0.471866 -0.957783
v -0.148432 0.471866 -0.990743
v 0.065099 0.527479 -1.921299
v 0.109691 0.498073 -1.903057
v 0.138706 0.478445 -1.865392
v -0.145134 0.474097 -1.834062
v -0.126892 0.486437 -1.885855
v -0.089227 0.511916 -1.914871
v -0.123693 0.601775 -0.948980
v -0.100118 0.583018 -1.910106
v -0.133942 0.596149 -1.876283
v -0.147377 0.601365 -1.767422
v 0.133942 0.596149 -1.876283
v 0.100118 0.583018 -1.910106
v 0.048867 0.566609 -1.923542
v 0.121575 0.661920 -0.949456
v -0.048280 0.582444 -1.923451
v 0.144307 0.661251 -1.767426
v 0.145340 0.662184 -1.063254
v -0.145340 0.662184 -1.063253
v -0.145340 0.662184 -0.969747
v 0.145340 0.662184 -1.424504
v 0.077544 0.574254 -1.918265
v 0.118471 0.590143 -1.894636
v 0.142101 0.599317 -1.853709
v -0.142101 0.599317 -1.853709
v -0.118471 0.590143 -1.894636
v -0.077544 0.574254 -1.918265
v 0.145340 0.662184 -0.969747
v -0.145340 0.662184 -1.424504
v -0.000000 0.662184 -0.945509
v -0.000000 0.579186 -1.924465
v -0.026327 0.573997 -1.924465
v 0.071124 0.639814 -0.945420
v -0.148432 0.639814 -1.220429
v 0.148432 0.639814 -0.990727
v -0.065099 0.582267 -1.921299
v -0.089227 0.598371 -1.914871
v -0.109691 0.612695 -1.903057
v -0.126892 0.624736 -1.885855
v -0.138706 0.633006 -1.865392
v -0.145134 0.637506 -1.834062
v 0.145135 0.637506 -1.834062
v 0.138706 0.633006 -1.865392
v 0.126892 0.624736 -1.885855
v 0.109691 0.612695 -1.903057
v 0.089227 0.598371 -1.914871
v 0.065099 0.582267 -1.921299
v 0.148300 0.639722 -1.621708
v -0.145340 0.639814 -0.957766
v -0.148432 0.639814 -0.990727
v 0.148432 0.639814 -1.220429
v 0.145340 0.639814 -0.957766
v -0.148300 0.639722 -1.621708
v -0.071124 0.639814 -0.945420
v 0.026327 0.573997 -1.924465
v 0.026391 0.579586 -1.924338
v -0.070723 0.675421 -0.958041
v -0.070723 0.662118 -0.946003
v -0.145211 0.662067 -1.621719
v 0.142362 0.662118 -0.957920
v -0.087368 0.499986 -1.914871
v -0.124248 0.467352 -1.885855
v -0.142111 0.451546 -1.834063
v -0.066464 0.442667 -1.865392
v -0.052560 0.471540 -1.903057
v -0.031642 0.514864 -1.921282
v 0.066464 0.666225 -1.865392
v 0.052560 0.637330 -1.903057
v 0.031642 0.593994 -1.921282
v 0.135817 0.457116 -1.865392
v 0.107405 0.482256 -1.903057
v 0.063817 0.519873 -1.921282
v 0.070723 0.433565 -0.958137
v 0.071124 0.432989 -1.220610
v 0.145340 0.662184 -1.220480
v -0.145340 0.662184 -0.990811
v -0.071124 0.675910 -1.220553
v 0.071124 0.675910 -1.220553
v 0.071061 0.675779 -1.621735
v -0.071061 0.675779 -1.621735
v -0.148432 0.509188 -0.990693
v -0.145340 0.509188 -0.957730
v -0.142362 0.662118 -0.957920
v 0.148432 0.509188 -1.220408
v 0.148300 0.509237 -1.621704
v 0.145211 0.662067 -1.621719
v -0.071124 0.432989 -1.220610
v -0.071061 0.433120 -1.621748
v 0.071061 0.433120 -1.621748
v -0.070723 0.433565 -0.958137
v -0.071124 0.432989 -0.991025
v 0.071124 0.432989 -0.991025
v 0.065099 0.569858 -1.921299
v 0.089227 0.578789 -1.914871
v 0.087368 0.499986 -1.914871
v 0.109691 0.586734 -1.903057
v 0.126892 0.593412 -1.885855
v 0.124248 0.467352 -1.885855
v 0.138707 0.597999 -1.865392
v 0.145134 0.600494 -1.834062
v 0.142111 0.451546 -1.834063
v -0.031642 0.593994 -1.921282
v -0.042755 0.616952 -1.914871
v 0.042755 0.616952 -1.914871
v -0.052560 0.637330 -1.903057
v -0.060802 0.654460 -1.885855
v 0.060802 0.654460 -1.885855
v -0.066464 0.666225 -1.865392
v -0.069544 0.672626 -1.834063
v 0.069544 0.672626 -1.834063
v 0.031642 0.514864 -1.921282
v 0.042755 0.491904 -1.914871
v -0.042755 0.491904 -1.914871
v 0.052560 0.471540 -1.903057
v 0.060802 0.454423 -1.885855
v -0.060802 0.454423 -1.885855
v 0.066464 0.442667 -1.865392
v 0.069544 0.436270 -1.834064
v -0.069544 0.436270 -1.834064
v -0.145134 0.600494 -1.834062
v -0.138706 0.597999 -1.865392
v -0.135817 0.457116 -1.865392
v -0.126892 0.593412 -1.885855
v -0.109691 0.586734 -1.903057
v -0.107405 0.482256 -1.903057
v -0.089227 0.578789 -1.914871
v -0.065099 0.569858 -1.921299
v -0.063817 0.519873 -1.921282
v 0.145340 0.509188 -0.957730
v 0.148432 0.509188 -0.990693
v 0.145340 0.662184 -0.990811
v -0.148300 0.509237 -1.621704
v -0.148432 0.509188 -1.220408
v -0.145340 0.662184 -1.220480
v -0.071124 0.509188 -0.945384
v 0.071124 0.509188 -0.945384
v 0.070723 0.662118 -0.946003
v 0.070723 0.675421 -0.958041
v 0.071124 0.675910 -0.990931
v -0.071124 0.675910 -0.990931
v 0.026327 0.544032 -1.924465
v -0.026327 0.544032 -1.924465
v -0.026391 0.579586 -1.924338
v -0.026391 0.529700 -1.924338
v 0.026391 0.529699 -1.924338
v 0.070723 0.448767 -0.946053
v -0.070723 0.448767 -0.946053
v -0.145340 0.448689 -1.220509
v -0.145211 0.448803 -1.621726
v 0.145340 0.448689 -0.990859
v 0.142362 0.448767 -0.957969
v -0.065099 0.539654 -1.921299
v -0.109691 0.523545 -1.903057
v -0.138706 0.512792 -1.865392
v 0.145134 0.510410 -1.834062
v 0.126892 0.517170 -1.885855
v 0.089227 0.531128 -1.914871
v 0.145211 0.448803 -1.621726
v 0.145340 0.448689 -1.220509
v -0.142362 0.448767 -0.957969
v -0.145340 0.448689 -0.990859
v 0.065099 0.539654 -1.921299
v 0.109691 0.523545 -1.903057
v 0.138707 0.512792 -1.865392
v -0.145134 0.510410 -1.834062
v -0.126892 0.517170 -1.885855
v -0.089227 0.531128 -1.914871
v -0.026327 0.565271 -1.924465
v 0.071124 0.601775 -0.945382
v -0.148432 0.601775 -1.220407
v 0.148432 0.601775 -0.990691
v -0.063817 0.589612 -1.921282
v -0.087368 0.609886 -1.914871
v -0.107405 0.627962 -1.903057
v -0.124248 0.643156 -1.885855
v -0.135817 0.653593 -1.865392
v -0.142111 0.659271 -1.834063
v 0.142111 0.659271 -1.834063
v 0.135817 0.653593 -1.865392
v 0.124248 0.643156 -1.885855
v 0.107405 0.627962 -1.903057
v 0.087368 0.609886 -1.914871
v 0.063817 0.589612 -1.921282
v 0.148300 0.601723 -1.621703
v -0.145340 0.601775 -0.957728
v -0.148432 0.601775 -0.990691
v 0.148432 0.601775 -1.220406
v 0.145340 0.601775 -0.957728
v -0.148300 0.601723 -1.621703
v -0.071124 0.601775 -0.945382
v 0.026327 0.565271 -1.924465
vt 0.051311 0.845263
vt 0.046196 0.845263
vt 0.045826 0.824384
vt 0.050993 0.824435
vt 0.040893 0.845263
vt 0.040682 0.823551
vt 0.039678 0.809378
vt 0.043184 0.807067
vt 0.048763 0.806602
vt 0.137211 0.745717
vt 0.205816 0.745717
vt 0.205816 0.755494
vt 0.137211 0.755494
vt 0.274421 0.745717
vt 0.274421 0.755494
vt 0.274421 0.765222
vt 0.205816 0.765222
vt 0.137211 0.765221
vt 0.466163 0.882571
vt 0.487311 0.882571
vt 0.487311 0.941286
vt 0.466163 0.941286
vt 0.500000 0.882571
vt 0.500000 0.941286
vt 0.500000 1.000000
vt 0.487311 1.000000
vt 0.466163 1.000000
vt 0.582679 0.387431
vt 0.561531 0.387408
vt 0.561639 0.231968
vt 0.582764 0.231978
vt 0.548842 0.387378
vt 0.548964 0.231956
vt 0.549818 0.117065
vt 0.562397 0.117069
vt 0.583362 0.117072
vt 0.966163 0.745887
vt 0.987311 0.745815
vt 0.987311 0.755593
vt 0.966163 0.755667
vt 1.000000 0.745717
vt 1.000000 0.755494
vt 1.000000 0.765221
vt 0.987311 0.765322
vt 0.966163 0.765397
vt 0.101074 0.906610
vt 0.110052 0.905332
vt 0.119514 0.914485
vt 0.108462 0.915957
vt 0.114511 0.896386
vt 0.125005 0.904175
vt 0.135498 0.911964
vt 0.128977 0.923637
vt 0.115851 0.925304
vt 0.719195 0.014823
vt 0.735776 0.014823
vt 0.742558 0.022322
vt 0.724461 0.022322
vt 0.746725 0.014823
vt 0.754509 0.022322
vt 0.761026 0.030351
vt 0.748236 0.030351
vt 0.728869 0.030351
vt 0.733971 0.048704
vt 0.754808 0.048704
vt 0.757252 0.064396
vt 0.735868 0.064397
vt 0.768568 0.048704
vt 0.771373 0.064395
vt 0.773446 0.117062
vt 0.759058 0.117067
vt 0.737271 0.117071
vt 0.411631 0.716439
vt 0.477310 0.716439
vt 0.475742 0.725880
vt 0.411631 0.725880
vt 0.542989 0.716439
vt 0.539852 0.725880
vt 0.535447 0.734791
vt 0.473539 0.734791
vt 0.411631 0.734791
vt 0.411631 0.750320
vt 0.466389 0.750320
vt 0.462391 0.757731
vt 0.411631 0.757731
vt 0.521146 0.750320
vt 0.513151 0.757731
vt 0.505156 0.765142
vt 0.458394 0.765142
vt 0.411631 0.765142
vt 0.116365 0.845263
vt 0.116133 0.874659
vt 0.105655 0.870295
vt 0.105774 0.845263
vt 0.104599 0.888489
vt 0.098273 0.881148
vt 0.097358 0.866975
vt 0.097166 0.845263
vt 0.137210 0.048704
vt 0.071532 0.048704
vt 0.073100 0.039263
vt 0.137210 0.039263
vt 0.005853 0.048704
vt 0.008990 0.039263
vt 0.013395 0.030351
vt 0.075303 0.030351
vt 0.137210 0.030351
vt 0.137210 0.014823
vt 0.082453 0.014823
vt 0.086451 0.007411
vt 0.137210 0.007411
vt 0.027696 0.014823
vt 0.035691 0.007411
vt 0.043686 0.000000
vt 0.090448 0.000000
vt 0.137210 0.000000
vt 0.021843 0.845263
vt 0.022040 0.815867
vt 0.032507 0.820230
vt 0.032415 0.845263
vt 0.023418 0.794140
vt 0.033378 0.802037
vt 0.814871 0.048704
vt 0.794034 0.048704
vt 0.796768 0.039263
vt 0.816994 0.039263
vt 0.780274 0.048704
vt 0.783412 0.039263
vt 0.787816 0.030351
vt 0.800606 0.030351
vt 0.819973 0.030351
vt 0.829647 0.014823
vt 0.813066 0.014823
vt 0.820033 0.007411
vt 0.835056 0.007411
vt 0.802117 0.014823
vt 0.810112 0.007411
vt 0.818107 0.000000
vt 0.826999 0.000000
vt 0.840464 0.000000
vt 0.101074 0.783915
vt 0.110052 0.785193
vt 0.101025 0.794776
vt 0.093994 0.793761
vt 0.114511 0.794140
vt 0.104599 0.802037
vt 0.098273 0.809378
vt 0.094521 0.807067
vt 0.088761 0.806602
vt 0.411631 0.019503
vt 0.343026 0.019503
vt 0.343026 0.009727
vt 0.411631 0.009727
vt 0.274421 0.019503
vt 0.274421 0.009727
vt 0.274421 0.000000
vt 0.343026 0.000000
vt 0.411631 0.000000
vt 0.411631 0.377789
vt 0.343026 0.377789
vt 0.343026 0.217041
vt 0.411631 0.217041
vt 0.274421 0.377789
vt 0.274421 0.217041
vt 0.274421 0.093171
vt 0.343026 0.093171
vt 0.411631 0.093171
vt 0.966163 0.387431
vt 0.987311 0.387408
vt 0.987311 0.548205
vt 0.966163 0.548248
vt 1.000000 0.387378
vt 1.000000 0.548148
vt 1.000000 0.672037
vt 0.987311 0.672120
vt 0.966163 0.672181
vt 0.582679 0.745887
vt 0.561531 0.745815
vt 0.561531 0.729214
vt 0.582679 0.729284
vt 0.548842 0.745717
vt 0.548842 0.729119
vt 0.548842 0.672037
vt 0.561531 0.672120
vt 0.582679 0.672181
vt 0.137210 0.387378
vt 0.205816 0.387378
vt 0.205816 0.548148
vt 0.137210 0.548148
vt 0.274421 0.387378
vt 0.274421 0.548148
vt 0.274421 0.672037
vt 0.205816 0.672037
vt 0.137211 0.672037
vt 0.000000 0.387378
vt 0.068605 0.387378
vt 0.068605 0.548148
vt 0.000000 0.548148
vt 0.068605 0.672037
vt 0.000000 0.672037
vt 0.000975 0.117065
vt 0.069093 0.117065
vt 0.068666 0.231956
vt 0.000122 0.231956
vt 0.137210 0.117065
vt 0.137210 0.231956
vt 0.205328 0.117065
vt 0.205755 0.231956
vt 0.273445 0.117065
vt 0.274299 0.231956
vt 0.737930 0.745874
vt 0.703430 0.745916
vt 0.703430 0.729311
vt 0.737930 0.729271
vt 0.660968 0.745921
vt 0.660968 0.729317
vt 0.660968 0.672210
vt 0.703430 0.672205
vt 0.737930 0.672170
vt 0.737930 0.765384
vt 0.703430 0.765426
vt 0.703430 0.755695
vt 0.737930 0.755654
vt 0.660968 0.765432
vt 0.660968 0.755701
vt 0.582679 0.765397
vt 0.561531 0.765322
vt 0.561531 0.755593
vt 0.582679 0.755667
vt 0.548842 0.765222
vt 0.548842 0.755494
vt 0.810912 0.387427
vt 0.845412 0.387440
vt 0.845412 0.548265
vt 0.810912 0.548241
vt 0.887874 0.387442
vt 0.887874 0.548268
vt 0.887874 0.672210
vt 0.845412 0.672205
vt 0.810912 0.672170
vt 0.811572 0.117071
vt 0.845774 0.117073
vt 0.845457 0.231981
vt 0.810994 0.231976
vt 0.887868 0.117073
vt 0.887873 0.231982
vt 0.965480 0.117072
vt 0.986446 0.117069
vt 0.987203 0.231968
vt 0.966078 0.231978
vt 0.999025 0.117065
vt 0.999878 0.231956
vt 0.548842 0.377789
vt 0.480237 0.377789
vt 0.480237 0.217041
vt 0.548842 0.217041
vt 0.480237 0.093171
vt 0.548842 0.093171
vt 0.547866 0.648080
vt 0.479749 0.648080
vt 0.480176 0.533197
vt 0.548720 0.533197
vt 0.411631 0.648080
vt 0.411631 0.533197
vt 0.343514 0.648080
vt 0.343087 0.533197
vt 0.275396 0.648080
vt 0.274543 0.533197
vt 0.548842 0.019503
vt 0.480237 0.019503
vt 0.480237 0.009727
vt 0.548842 0.009727
vt 0.480237 0.000000
vt 0.548842 0.000000
vt 0.480237 0.036099
vt 0.548842 0.036099
vt 0.411631 0.036099
vt 0.343026 0.036099
vt 0.274421 0.036099
vt 0.036021 0.783915
vt 0.050755 0.783915
vt 0.054819 0.793761
vt 0.043348 0.793761
vt 0.068826 0.783915
vt 0.068887 0.793761
vt 0.068933 0.806602
vt 0.057822 0.806602
vt 0.020731 0.765221
vt 0.042275 0.765222
vt 0.046515 0.774568
vt 0.028376 0.774568
vt 0.068697 0.765221
vt 0.068762 0.774568
vt 0.115851 0.765221
vt 0.128977 0.766889
vt 0.119514 0.776041
vt 0.108462 0.774568
vt 0.135498 0.778562
vt 0.125005 0.786351
vt 0.946776 0.014823
vt 0.920247 0.014823
vt 0.917143 0.007411
vt 0.941180 0.007411
vt 0.887711 0.014823
vt 0.887664 0.007411
vt 0.887617 0.000000
vt 0.914039 0.000000
vt 0.935583 0.000000
vt 0.956787 0.030351
vt 0.925799 0.030351
vt 0.923269 0.022322
vt 0.952225 0.022322
vt 0.887795 0.030351
vt 0.887757 0.022322
vt 0.806284 0.022322
vt 0.824382 0.022322
vt 0.794333 0.022322
vt 0.962066 0.048704
vt 0.928727 0.048704
vt 0.927509 0.039263
vt 0.959870 0.039263
vt 0.887840 0.048704
vt 0.887821 0.039263
vt 0.930621 0.117073
vt 0.929816 0.064397
vt 0.964029 0.064397
vt 0.887856 0.064397
vt 0.789784 0.117067
vt 0.791591 0.064396
vt 0.812974 0.064397
vt 0.775397 0.117062
vt 0.777469 0.064395
vt 0.023418 0.896386
vt 0.022040 0.874659
vt 0.032507 0.870295
vt 0.033378 0.888489
vt 0.040682 0.866975
vt 0.039678 0.881148
vt 0.002303 0.911964
vt 0.000288 0.883616
vt 0.011164 0.879137
vt 0.012861 0.904175
vt 0.000000 0.845263
vt 0.010921 0.845263
vt 0.000288 0.806910
vt 0.011164 0.811388
vt 0.002303 0.778562
vt 0.012861 0.786351
vt 0.246725 0.014823
vt 0.191968 0.014823
vt 0.187970 0.007411
vt 0.238730 0.007411
vt 0.183973 0.000000
vt 0.230735 0.000000
vt 0.261026 0.030351
vt 0.199118 0.030351
vt 0.195860 0.022322
vt 0.254509 0.022322
vt 0.137210 0.022322
vt 0.078561 0.022322
vt 0.019912 0.022322
vt 0.268568 0.048704
vt 0.202889 0.048704
vt 0.201320 0.039263
vt 0.265430 0.039263
vt 0.204291 0.064396
vt 0.271373 0.064396
vt 0.137210 0.064396
vt 0.070129 0.064396
vt 0.003048 0.064396
vt 0.116133 0.815867
vt 0.105655 0.820230
vt 0.097358 0.823551
vt 0.137869 0.806910
vt 0.127001 0.811388
vt 0.138208 0.845263
vt 0.127286 0.845263
vt 0.137869 0.883616
vt 0.127001 0.879137
vt 0.302117 0.750320
vt 0.356874 0.750320
vt 0.360872 0.757731
vt 0.310112 0.757731
vt 0.364869 0.765142
vt 0.318107 0.765142
vt 0.287816 0.734791
vt 0.349724 0.734791
vt 0.352982 0.742820
vt 0.294333 0.742820
vt 0.411631 0.742820
vt 0.470281 0.742820
vt 0.528930 0.742820
vt 0.280274 0.716439
vt 0.345953 0.716439
vt 0.347521 0.725880
vt 0.283411 0.725880
vt 0.344550 0.700747
vt 0.277469 0.700747
vt 0.411631 0.700747
vt 0.478712 0.700747
vt 0.545794 0.700747
vt 0.586776 0.048704
vt 0.620115 0.048704
vt 0.619026 0.064397
vt 0.584813 0.064397
vt 0.661003 0.048704
vt 0.660986 0.064397
vt 0.660974 0.117073
vt 0.618221 0.117073
vt 0.592055 0.030351
vt 0.623043 0.030351
vt 0.621333 0.039263
vt 0.588972 0.039263
vt 0.661047 0.030351
vt 0.661021 0.039263
vt 0.752074 0.039263
vt 0.731849 0.039263
vt 0.765431 0.039263
vt 0.602066 0.014823
vt 0.628595 0.014823
vt 0.625573 0.022322
vt 0.596617 0.022322
vt 0.661131 0.014823
vt 0.661085 0.022322
vt 0.613259 0.000000
vt 0.634803 0.000000
vt 0.631699 0.007411
vt 0.607662 0.007411
vt 0.661225 0.000000
vt 0.661178 0.007411
vt 0.708378 0.000000
vt 0.721843 0.000000
vt 0.728810 0.007411
vt 0.713787 0.007411
vt 0.730735 0.000000
vt 0.738730 0.007411
vt 0.036021 0.906610
vt 0.050755 0.906610
vt 0.046515 0.915957
vt 0.028376 0.915957
vt 0.068826 0.906610
vt 0.068762 0.915957
vt 0.068697 0.925304
vt 0.042275 0.925304
vt 0.020731 0.925304
vt 0.048763 0.883923
vt 0.057822 0.883923
vt 0.054819 0.896764
vt 0.043348 0.896764
vt 0.068933 0.883923
vt 0.068887 0.896764
vt 0.088761 0.883923
vt 0.094521 0.883459
vt 0.101025 0.895750
vt 0.093994 0.896764
vt 0.810912 0.745874
vt 0.845412 0.745915
vt 0.845412 0.755695
vt 0.810912 0.755654
vt 0.887874 0.745921
vt 0.887874 0.755701
vt 0.887874 0.765432
vt 0.845412 0.765426
vt 0.810912 0.765384
vt 0.845412 0.729311
vt 0.810912 0.729271
vt 0.887874 0.729317
vt 0.987311 0.729214
vt 0.966163 0.729284
vt 1.000000 0.729119
vt 0.737930 0.387427
vt 0.703430 0.387440
vt 0.703385 0.231981
vt 0.737848 0.231976
vt 0.660968 0.387442
vt 0.660969 0.231982
vt 0.703068 0.117073
vt 0.703430 0.548265
vt 0.737930 0.548241
vt 0.660968 0.548269
vt 0.561531 0.548206
vt 0.582679 0.548248
vt 0.548842 0.548148
vt 0.310912 0.882571
vt 0.345412 0.882571
vt 0.345412 0.941286
vt 0.310912 0.941286
vt 0.387874 0.882571
vt 0.387874 0.941286
vt 0.387874 1.000000
vt 0.345412 1.000000
vt 0.310912 1.000000
vt 0.310912 0.765142
vt 0.345412 0.765142
vt 0.345412 0.823857
vt 0.310912 0.823857
vt 0.387874 0.765142
vt 0.387874 0.823857
vt 0.466163 0.765142
vt 0.487311 0.765142
vt 0.487311 0.823857
vt 0.466163 0.823857
vt 0.500000 0.765142
vt 0.500000 0.823857
vt 0.000000 0.745717
vt 0.068605 0.745717
vt 0.068605 0.755494
vt 0.000000 0.755494
vt 0.068605 0.765221
vt 0.000000 0.765222
vt 0.068605 0.729119
vt 0.000000 0.729119
vt 0.137211 0.729119
vt 0.205816 0.729119
vt 0.274421 0.729119
vt 0.086298 0.845263
vt 0.078523 0.845263
vt 0.078692 0.824435
vt 0.086606 0.824435
vt 0.068954 0.845263
vt 0.068952 0.824435
vt 0.079873 0.806602
vt 0.079873 0.883923
vt 0.078692 0.866091
vt 0.086606 0.866091
vt 0.068952 0.866091
vt 0.043184 0.883459
vt 0.045826 0.866141
vt 0.050993 0.866091
vt 0.091941 0.866141
vt 0.091582 0.845263
vt 0.091941 0.824384
vt 0.274421 0.765142
vt 0.288934 0.765142
vt 0.288934 0.823857
vt 0.274421 0.823857
vt 0.288934 0.882571
vt 0.274421 0.882571
vt 0.288934 0.941286
vt 0.274421 0.941286
vt 0.288934 1.000000
vt 0.274421 1.000000
vt 0.774421 0.671971
vt 0.759908 0.672086
vt 0.759908 0.548182
vt 0.774421 0.548102
vt 0.759908 0.387396
vt 0.774421 0.387353
vt 0.759801 0.231963
vt 0.774299 0.231946
vt 0.774421 0.671971
vt 0.788934 0.672086
vt 0.788934 0.729174
vt 0.774421 0.729044
vt 0.788934 0.745774
vt 0.774421 0.745639
vt 0.788934 0.755552
vt 0.774421 0.755415
vt 0.788935 0.765281
vt 0.774421 0.765142
vt 0.082739 0.896764
vt 0.086618 0.906610
vt 0.687241 0.000000
vt 0.690203 0.007411
vt 0.693166 0.014823
vt 0.698466 0.030351
vt 0.700098 0.039263
vt 0.701261 0.048704
vt 0.846542 0.064397
vt 0.847581 0.048704
vt 0.850376 0.030351
vt 0.852791 0.022322
vt 0.855676 0.014823
vt 0.094713 0.765222
vt 0.090665 0.774568
vt 0.086618 0.783915
vt 0.789041 0.231963
vt 0.774543 0.231946
vt 0.788934 0.387396
vt 0.774421 0.387353
vt 0.788934 0.548182
vt 0.774421 0.548102
vt 0.774421 0.765142
vt 0.759908 0.765281
vt 0.759908 0.755552
vt 0.774421 0.755415
vt 0.759908 0.745774
vt 0.774421 0.745639
vt 0.759908 0.729175
vt 0.774421 0.729044
vt 0.082739 0.793761
vt 0.858639 0.007411
vt 0.861602 0.000000
vt 0.848744 0.039263
vt 0.702300 0.064397
vt 0.696051 0.022322
vt 0.090666 0.915957
vt 0.094713 0.925304
vt 0.059059 0.866091
vt 0.059236 0.845263
vt 0.430999 0.765142
vt 0.431000 0.823857
vt 0.430999 0.882571
vt 0.617843 0.672207
vt 0.617843 0.548266
vt 0.617843 0.387440
vt 0.930999 0.672206
vt 0.930999 0.729313
vt 0.930999 0.745917
vt 0.036558 0.895750
vt 0.027357 0.905332
vt 0.017709 0.914485
vt 0.008062 0.923637
vt 0.592528 0.000000
vt 0.600302 0.000000
vt 0.593206 0.007411
vt 0.584533 0.007411
vt 0.586111 0.014823
vt 0.576538 0.014823
vt 0.579203 0.022322
vt 0.568754 0.022322
vt 0.573419 0.030351
vt 0.562237 0.030351
vt 0.569510 0.039263
vt 0.557832 0.039263
vt 0.566725 0.048704
vt 0.554695 0.048704
vt 0.564236 0.064396
vt 0.551890 0.064396
vt 0.984606 0.064396
vt 0.996952 0.064396
vt 0.982117 0.048704
vt 0.994147 0.048704
vt 0.979332 0.039263
vt 0.991010 0.039263
vt 0.975423 0.030351
vt 0.986605 0.030351
vt 0.969640 0.022322
vt 0.980088 0.022322
vt 0.962731 0.014823
vt 0.972305 0.014823
vt 0.955636 0.007411
vt 0.964309 0.007411
vt 0.948540 0.000000
vt 0.956314 0.000000
vt 0.008062 0.766889
vt 0.017709 0.776041
vt 0.027357 0.785193
vt 0.036558 0.794776
vt 0.930952 0.231981
vt 0.930999 0.387440
vt 0.617843 0.765427
vt 0.617843 0.755697
vt 0.617842 0.745917
vt 0.617843 0.729313
vt 0.930999 0.548266
vt 0.930999 0.755697
vt 0.930999 0.765427
vt 0.617890 0.231982
vt 0.430999 0.941286
vt 0.430999 1.000000
vt 0.059059 0.824435
vn 0.0000 0.0115 -0.9999
vn 0.0000 0.0901 -0.9959
vn 0.0159 0.0846 -0.9963
vn 0.0222 0.0106 -0.9997
vn 0.0000 0.1977 -0.9803
vn 0.0081 0.1928 -0.9812
vn 0.0261 0.1878 -0.9818
vn 0.0687 0.0851 -0.9940
vn 0.0877 0.0106 -0.9961
vn 0.0000 0.9998 0.0211
vn -0.0376 0.9991 0.0212
vn -0.0360 0.9781 0.2046
vn 0.0000 0.9774 0.2114
vn -0.2601 0.9648 0.0399
vn -0.2639 0.8904 0.3707
vn -0.1144 0.6858 0.7187
vn -0.0335 0.6926 0.7205
vn 0.0000 0.6936 0.7203
vn 0.0000 0.0138 0.9999
vn 0.0000 0.1853 0.9827
vn -0.0363 0.1776 0.9834
vn -0.0378 0.0139 0.9992
vn -0.2480 0.3036 0.9199
vn -0.2287 0.0216 0.9732
vn -0.9976 0.0686 -0.0003
vn -0.8053 0.5928 -0.0004
vn -0.8052 0.5929 -0.0046
vn -0.9976 0.0687 -0.0037
vn -0.2506 0.9680 -0.0004
vn -0.2507 0.9680 -0.0040
vn -0.2510 0.9677 -0.0228
vn -0.8044 0.5934 -0.0261
vn -0.9974 0.0691 -0.0209
vn 0.9898 0.0676 0.1251
vn 0.8124 0.5742 0.1010
vn 0.6676 0.4939 0.5571
vn 0.7584 0.0530 0.6496
vn 0.2601 0.9648 0.0399
vn 0.2639 0.8904 0.3707
vn 0.1144 0.6858 0.7187
vn 0.2480 0.3036 0.9199
vn 0.2287 0.0216 0.9732
vn -0.2472 -0.0189 -0.9687
vn -0.1670 -0.1236 -0.9781
vn -0.2305 -0.1643 -0.9591
vn -0.3289 -0.0233 -0.9441
vn -0.0525 -0.2357 -0.9704
vn -0.0703 -0.3060 -0.9494
vn -0.1100 -0.4528 -0.8848
vn -0.3532 -0.2470 -0.9023
vn -0.4862 -0.0334 -0.8732
vn -0.6900 -0.0475 -0.7223
vn -0.5045 -0.3485 -0.7899
vn -0.5648 -0.3885 -0.7280
vn -0.7503 -0.0510 -0.6591
vn -0.1700 -0.6384 -0.7506
vn -0.1909 -0.6987 -0.6895
vn -0.2284 -0.8064 -0.5455
vn -0.6685 -0.4639 -0.5812
vn -0.8553 -0.0588 -0.5147
vn -0.9721 -0.0665 -0.2250
vn -0.7889 -0.5519 -0.2703
vn -0.8134 -0.5695 -0.1182
vn -0.9930 -0.0678 -0.0972
vn -0.2721 -0.9304 -0.2454
vn -0.2811 -0.9537 -0.1067
vn -0.2806 -0.9595 -0.0230
vn -0.8202 -0.5714 -0.0258
vn -0.9975 -0.0667 -0.0208
vn 0.0000 -0.9763 -0.2161
vn -0.0430 -0.9748 -0.2188
vn -0.0410 -0.9380 -0.3443
vn 0.0000 -0.9403 -0.3404
vn -0.2561 -0.8880 -0.3819
vn -0.0374 -0.8629 -0.5039
vn 0.0000 -0.8663 -0.4996
vn 0.0000 -0.7073 -0.7068
vn -0.0290 -0.7024 -0.7112
vn -0.0257 -0.6398 -0.7681
vn 0.0000 -0.6443 -0.7647
vn -0.1499 -0.5813 -0.7997
vn -0.0189 -0.4974 -0.8673
vn 0.0000 -0.5006 -0.8656
vn 0.0000 -0.2677 -0.9635
vn -0.0092 -0.2654 -0.9641
vn -0.0075 -0.2439 -0.9698
vn 0.0000 -0.2452 -0.9695
vn -0.0450 -0.2091 -0.9768
vn -0.0287 -0.1819 -0.9829
vn -0.0089 -0.1873 -0.9822
vn 0.0000 -0.1921 -0.9814
vn 0.0000 0.9763 -0.2161
vn 0.0366 0.9752 -0.2185
vn 0.0349 0.9384 -0.3438
vn 0.0000 0.9403 -0.3404
vn 0.2437 0.9388 -0.2435
vn 0.2294 0.8964 -0.3792
vn 0.2048 0.8146 -0.5427
vn 0.0318 0.8635 -0.5034
vn 0.0000 0.8662 -0.4996
vn 0.0000 0.7073 -0.7069
vn 0.0247 0.7031 -0.7107
vn 0.0219 0.6404 -0.7677
vn 0.0000 0.6442 -0.7648
vn 0.1526 0.6462 -0.7478
vn 0.1344 0.5881 -0.7975
vn 0.0984 0.4578 -0.8836
vn 0.0161 0.4978 -0.8672
vn 0.0000 0.5005 -0.8657
vn 0.0000 0.2679 -0.9634
vn 0.0078 0.2659 -0.9640
vn 0.0065 0.2460 -0.9692
vn 0.0000 0.2471 -0.9690
vn 0.0471 0.2389 -0.9699
vn 0.0409 0.2131 -0.9761
vn 0.9721 -0.0665 -0.2250
vn 0.7889 -0.5519 -0.2703
vn 0.7455 -0.5198 -0.4171
vn 0.9333 -0.0638 -0.3533
vn 0.2721 -0.9304 -0.2454
vn 0.2561 -0.8880 -0.3819
vn 0.2284 -0.8064 -0.5455
vn 0.6685 -0.4639 -0.5812
vn 0.8553 -0.0588 -0.5147
vn 0.6900 -0.0475 -0.7223
vn 0.5045 -0.3485 -0.7899
vn 0.4564 -0.3178 -0.8310
vn 0.6270 -0.0436 -0.7778
vn 0.1700 -0.6384 -0.7506
vn 0.1499 -0.5813 -0.7997
vn 0.1100 -0.4528 -0.8848
vn 0.3532 -0.2470 -0.9023
vn 0.4862 -0.0334 -0.8732
vn 0.2472 -0.0189 -0.9687
vn 0.1670 -0.1236 -0.9781
vn 0.1336 -0.1040 -0.9855
vn 0.1829 -0.0139 -0.9830
vn 0.0525 -0.2357 -0.9704
vn 0.0450 -0.2091 -0.9768
vn 0.0287 -0.1819 -0.9829
vn 0.0703 -0.0813 -0.9942
vn 0.0878 -0.0103 -0.9961
vn 0.0000 -0.9997 0.0248
vn 0.0442 -0.9987 0.0250
vn 0.0419 -0.9708 0.2360
vn 0.0000 -0.9698 0.2438
vn 0.2901 -0.9559 0.0450
vn 0.2864 -0.8731 0.3945
vn 0.1233 -0.6525 0.7477
vn 0.0361 -0.6597 0.7506
vn 0.0000 -0.6591 0.7520
vn 0.0000 -1.0000 -0.0003
vn 0.0439 -0.9990 -0.0003
vn 0.0439 -0.9990 0.0000
vn 0.0000 -1.0000 0.0000
vn 0.2803 -0.9599 -0.0004
vn 0.2803 -0.9599 0.0000
vn 0.9976 0.0686 -0.0003
vn 0.8053 0.5928 -0.0004
vn 0.8054 0.5928 0.0000
vn 0.9976 0.0686 0.0000
vn 0.2506 0.9680 -0.0004
vn 0.2506 0.9680 0.0000
vn -0.9898 0.0676 0.1251
vn -0.8124 0.5742 0.1010
vn -0.8054 0.5928 0.0000
vn -0.9976 0.0686 0.0000
vn -0.2506 0.9680 0.0000
vn 0.0000 1.0000 -0.0003
vn -0.0374 0.9993 -0.0003
vn -0.0374 0.9993 0.0000
vn 0.0000 1.0000 0.0000
vn 0.0374 0.9993 -0.0003
vn 0.0374 0.9993 0.0000
vn 0.2510 0.9677 -0.0228
vn 0.0374 0.9991 -0.0202
vn 0.0374 0.9993 -0.0035
vn 0.2507 0.9680 -0.0040
vn 0.0000 0.9998 -0.0200
vn 0.0000 1.0000 -0.0035
vn -0.0374 0.9991 -0.0202
vn -0.0374 0.9993 -0.0035
vn -0.9900 -0.0654 0.1252
vn -0.9919 -0.0001 0.1269
vn -1.0000 0.0000 0.0000
vn -0.9978 -0.0663 0.0000
vn -0.9919 0.0000 0.1268
vn -0.2286 -0.0218 0.9733
vn -0.2243 -0.0008 0.9745
vn -0.7513 -0.0005 0.6599
vn -0.7581 -0.0518 0.6500
vn -0.2243 0.0000 0.9745
vn -0.7514 0.0000 0.6598
vn -0.6676 0.4939 0.5571
vn -0.7584 0.0530 0.6496
vn 0.9978 -0.0663 -0.0003
vn 1.0000 0.0000 -0.0003
vn 1.0000 0.0000 0.0000
vn 0.9978 -0.0663 0.0000
vn 0.9975 -0.0667 -0.0208
vn 0.9998 0.0000 -0.0200
vn 1.0000 0.0000 -0.0035
vn 0.9978 -0.0663 -0.0036
vn 0.9974 0.0691 -0.0209
vn 0.8044 0.5934 -0.0261
vn 0.8052 0.5929 -0.0046
vn 0.9976 0.0687 -0.0037
vn -0.2803 -0.9599 -0.0004
vn -0.0439 -0.9990 -0.0003
vn -0.0439 -0.9990 0.0000
vn -0.2803 -0.9599 0.0000
vn -0.0439 -0.9988 -0.0202
vn -0.0439 -0.9990 -0.0035
vn -0.2804 -0.9599 -0.0040
vn 0.0000 -0.9998 -0.0200
vn 0.0000 -1.0000 -0.0035
vn 0.0439 -0.9988 -0.0202
vn 0.0439 -0.9990 -0.0035
vn 0.2806 -0.9595 -0.0230
vn 0.2804 -0.9599 -0.0040
vn -0.2901 -0.9559 0.0450
vn -0.0442 -0.9987 0.0250
vn -0.0419 -0.9708 0.2360
vn -0.2864 -0.8731 0.3945
vn -0.0361 -0.6597 0.7506
vn -0.1233 -0.6525 0.7477
vn 0.2465 0.0194 -0.9689
vn 0.2580 0.0000 -0.9661
vn 0.1871 0.0000 -0.9823
vn 0.1826 0.0143 -0.9831
vn 0.0890 0.0000 -0.9960
vn 0.4852 0.0344 -0.8737
vn 0.5000 0.0000 -0.8660
vn 0.3406 0.0000 -0.9402
vn 0.3280 0.0239 -0.9443
vn 0.2305 -0.1643 -0.9591
vn 0.3288 -0.0233 -0.9441
vn 0.0703 -0.3060 -0.9494
vn 0.6888 0.0490 -0.7233
vn 0.7071 0.0000 -0.7071
vn 0.6439 0.0000 -0.7651
vn 0.6258 0.0450 -0.7786
vn 0.8545 0.0609 -0.5157
vn 0.8660 0.0000 -0.5000
vn 0.7651 0.0000 -0.6439
vn 0.7493 0.0527 -0.6601
vn 0.5648 -0.3885 -0.7280
vn 0.7503 -0.0510 -0.6591
vn 0.1909 -0.6987 -0.6895
vn 0.9717 0.0689 -0.2257
vn 0.9763 0.0000 -0.2163
vn 0.9402 0.0000 -0.3406
vn 0.9328 0.0661 -0.3542
vn 0.9763 0.0000 -0.2162
vn 0.9956 0.0000 -0.0933
vn 0.9927 0.0702 -0.0975
vn 0.8202 -0.5714 -0.0258
vn 0.8134 -0.5695 -0.1182
vn 0.9930 -0.0678 -0.0972
vn 0.2811 -0.9537 -0.1067
vn -0.0471 0.2389 -0.9699
vn -0.0078 0.2659 -0.9640
vn -0.0065 0.2460 -0.9692
vn -0.0409 0.2131 -0.9761
vn -0.0081 0.1928 -0.9812
vn -0.0261 0.1878 -0.9818
vn -0.0984 0.4578 -0.8836
vn -0.0161 0.4978 -0.8672
vn -0.0104 0.3389 -0.9407
vn -0.0629 0.3095 -0.9488
vn 0.0000 0.3410 -0.9400
vn 0.0104 0.3389 -0.9407
vn 0.0629 0.3095 -0.9488
vn -0.1526 0.6462 -0.7477
vn -0.0247 0.7031 -0.7107
vn -0.0219 0.6404 -0.7677
vn -0.1344 0.5881 -0.7975
vn -0.2048 0.8146 -0.5427
vn -0.0318 0.8635 -0.5034
vn -0.0273 0.7616 -0.6475
vn -0.1712 0.7066 -0.6865
vn 0.0000 0.7653 -0.6436
vn 0.0273 0.7616 -0.6475
vn 0.1712 0.7066 -0.6865
vn -0.2437 0.9388 -0.2435
vn -0.0366 0.9752 -0.2185
vn -0.0349 0.9384 -0.3438
vn -0.2294 0.8964 -0.3792
vn -0.0375 0.9948 -0.0943
vn -0.2516 0.9620 -0.1058
vn 0.0000 0.9956 -0.0932
vn 0.0375 0.9948 -0.0943
vn 0.2516 0.9620 -0.1058
vn 0.0092 -0.2654 -0.9641
vn 0.0075 -0.2439 -0.9698
vn 0.0089 -0.1873 -0.9822
vn 0.0189 -0.4974 -0.8673
vn 0.0122 -0.3386 -0.9408
vn 0.0000 -0.3411 -0.9400
vn -0.0122 -0.3386 -0.9408
vn 0.0290 -0.7024 -0.7112
vn 0.0257 -0.6398 -0.7681
vn 0.0374 -0.8629 -0.5039
vn 0.0321 -0.7609 -0.6481
vn 0.0000 -0.7654 -0.6435
vn -0.0321 -0.7609 -0.6481
vn 0.0430 -0.9748 -0.2188
vn 0.0410 -0.9380 -0.3443
vn 0.0441 -0.9945 -0.0945
vn 0.0000 -0.9956 -0.0932
vn -0.0441 -0.9945 -0.0945
vn -0.9717 0.0689 -0.2256
vn -0.9763 0.0000 -0.2162
vn -0.9956 0.0000 -0.0933
vn -0.9927 0.0702 -0.0975
vn -0.9998 0.0000 -0.0200
vn -0.8545 0.0609 -0.5157
vn -0.8660 0.0000 -0.5000
vn -0.9402 0.0000 -0.3406
vn -0.9328 0.0661 -0.3542
vn -0.7455 -0.5198 -0.4171
vn -0.9333 -0.0638 -0.3533
vn -0.6888 0.0490 -0.7233
vn -0.7071 0.0000 -0.7071
vn -0.7651 0.0000 -0.6439
vn -0.7492 0.0527 -0.6602
vn -0.4852 0.0344 -0.8737
vn -0.5000 0.0000 -0.8660
vn -0.6439 0.0000 -0.7651
vn -0.6258 0.0450 -0.7786
vn -0.4564 -0.3178 -0.8310
vn -0.6270 -0.0436 -0.7778
vn -0.2465 0.0194 -0.9689
vn -0.2579 0.0000 -0.9661
vn -0.3406 0.0000 -0.9402
vn -0.3280 0.0239 -0.9443
vn -0.0877 0.0106 -0.9961
vn -0.0890 0.0000 -0.9960
vn -0.1871 0.0000 -0.9823
vn -0.1826 0.0143 -0.9831
vn -0.0878 -0.0103 -0.9961
vn -0.0703 -0.0813 -0.9942
vn -0.1336 -0.1040 -0.9855
vn -0.1829 -0.0139 -0.9830
vn 0.9900 -0.0654 0.1252
vn 0.9919 -0.0001 0.1269
vn 0.7513 -0.0005 0.6599
vn 0.7581 -0.0518 0.6500
vn 0.9919 0.0000 0.1268
vn 0.7514 0.0000 0.6598
vn 0.2243 0.0000 0.9745
vn 0.2243 -0.0008 0.9745
vn 0.2286 -0.0218 0.9733
vn -0.9978 -0.0663 -0.0003
vn -1.0000 0.0000 -0.0003
vn -1.0000 0.0000 -0.0035
vn -0.9978 -0.0663 -0.0036
vn 0.0000 -0.0143 0.9999
vn 0.0000 -0.0008 1.0000
vn -0.0378 -0.0008 0.9993
vn -0.0378 -0.0143 0.9992
vn 0.0000 0.0000 1.0000
vn -0.0378 0.0000 0.9993
vn 0.0378 -0.0008 0.9993
vn 0.0378 -0.0143 0.9992
vn 0.0378 0.0000 0.9993
vn 0.0363 0.1776 0.9834
vn 0.0378 0.0139 0.9992
vn 0.0335 0.6927 0.7205
vn 0.0376 0.9991 0.0212
vn 0.0360 0.9781 0.2046
vn 0.0000 -0.0112 -0.9999
vn 0.0000 0.0000 -1.0000
vn 0.0229 0.0000 -0.9997
vn 0.0222 -0.0103 -0.9997
vn -0.0229 0.0000 -0.9997
vn -0.0222 -0.0103 -0.9997
vn -0.0687 0.0851 -0.9940
vn -0.0159 0.0846 -0.9963
vn -0.0222 0.0106 -0.9997
vn -0.0163 -0.0806 -0.9966
vn 0.0000 -0.0859 -0.9963
vn 0.0163 -0.0806 -0.9966
vn 0.2489 -0.2775 0.9279
vn 0.0364 -0.1617 0.9861
vn 0.0000 -0.1683 0.9857
vn -0.0364 -0.1617 0.9861
vn -0.2489 -0.2775 0.9279
vn -0.8212 -0.5706 0.0000
vn -0.8212 -0.5707 -0.0004
vn -0.8210 -0.5708 -0.0045
vn 0.8212 -0.5706 0.0000
vn 0.8267 -0.5532 0.1028
vn 0.6779 -0.4735 0.5623
vn 0.2579 0.0000 -0.9661
vn 0.8210 -0.5708 -0.0045
vn 0.8212 -0.5707 -0.0004
vn -0.6779 -0.4735 0.5623
vn -0.8267 -0.5532 0.1028
vn 0.2243 0.0005 0.9745
vn 0.0378 0.0005 0.9993
vn 0.0000 0.0005 1.0000
vn 0.9919 0.0001 0.1268
vn -0.1301 0.1075 -0.9856
vn -0.1622 0.1272 -0.9785
vn -0.2242 0.1696 -0.9597
vn -0.3440 0.2554 -0.9035
vn -0.4447 0.3284 -0.8332
vn -0.4916 0.3601 -0.7928
vn -0.5512 0.4021 -0.7310
vn -0.6539 0.4807 -0.5842
vn -0.7300 0.5390 -0.4201
vn -0.7732 0.5726 -0.2725
vn -0.7977 0.5911 -0.1192
vn 0.7977 0.5911 -0.1192
vn 0.7732 0.5726 -0.2725
vn 0.7300 0.5390 -0.4201
vn 0.6539 0.4807 -0.5842
vn 0.5512 0.4021 -0.7310
vn 0.4916 0.3601 -0.7928
vn 0.4447 0.3284 -0.8332
vn 0.3440 0.2554 -0.9035
vn 0.2242 0.1696 -0.9597
vn 0.1622 0.1272 -0.9785
vn 0.1301 0.1075 -0.9856
vn -0.2243 0.0005 0.9745
vn -0.7514 0.0004 0.6598
vn -0.9919 0.0001 0.1268
vn 0.7514 0.0004 0.6598
vn -0.0378 0.0005 0.9993
usemtl Batterie
s 1
f 138/1/1 386/2/2 411/3/3 410/4/4
f 386/2/2 52/5/5 210/6/6 411/3/3
f 411/3/3 210/6/6 18/7/7 170/8/8
f 410/4/4 411/3/3 170/8/8 121/9/9
f 89/10/10 310/11/11 412/12/12 307/13/13
f 310/11/11 63/14/14 221/15/15 412/12/12
f 412/12/12 221/15/15 2/16/16 142/17/17
f 307/13/13 412/12/12 142/17/17 28/18/18
f 137/19/19 385/20/20 413/21/21 409/22/22
f 385/20/20 28/23/18 142/24/17 413/21/21
f 413/21/21 142/24/17 2/25/16 139/26/23
f 409/22/22 413/21/21 139/26/23 115/27/24
f 136/28/25 384/29/26 414/30/27 408/31/28
f 384/29/26 59/32/29 173/33/30 414/30/27
f 414/30/27 173/33/30 10/34/31 152/35/32
f 408/31/28 414/30/27 152/35/32 118/36/33
f 135/37/34 383/38/35 415/39/36 407/40/37
f 383/38/35 64/41/38 222/42/39 415/39/36
f 415/39/36 222/42/39 4/43/40 370/44/41
f 407/40/37 415/39/36 370/44/41 122/45/42
f 110/46/43 334/47/44 416/48/45 362/49/46
f 334/47/44 31/50/47 145/51/48 416/48/45
f 416/48/45 145/51/48 7/52/49 321/53/50
f 362/49/46 416/48/45 321/53/50 97/54/51
f 109/55/52 333/56/53 417/57/54 361/58/55
f 333/56/53 34/59/56 148/60/57 417/57/54
f 417/57/54 148/60/57 8/61/58 322/62/59
f 361/58/55 417/57/54 322/62/59 98/63/60
f 108/64/61 332/65/62 418/66/63 360/67/64
f 332/65/62 37/68/65 151/69/66 418/66/63
f 418/66/63 151/69/66 6/70/67 323/71/68
f 360/67/64 418/66/63 323/71/68 99/72/69
f 82/73/70 282/74/71 419/75/72 279/76/73
f 282/74/71 37/77/65 195/78/74 419/75/72
f 419/75/72 195/78/74 8/79/58 199/80/75
f 279/76/73 419/75/72 199/80/75 41/81/76
f 81/82/77 278/83/78 420/84/79 275/85/80
f 278/83/78 34/86/56 192/87/81 420/84/79
f 420/84/79 192/87/81 7/88/49 201/89/82
f 275/85/80 420/84/79 201/89/82 43/90/83
f 80/91/84 274/92/85 421/93/86 271/94/87
f 274/92/85 31/50/47 189/95/88 421/93/86
f 421/93/86 189/95/88 5/96/89 203/97/90
f 271/94/87 421/93/86 203/97/90 45/98/91
f 79/99/92 270/100/93 422/101/94 267/102/95
f 270/100/93 47/103/96 161/104/97 422/101/94
f 422/101/94 161/104/97 19/105/98 206/106/99
f 267/102/95 422/101/94 206/106/99 48/107/100
f 78/108/101 266/109/102 423/110/103 263/111/104
f 266/109/102 49/112/105 163/113/106 423/110/103
f 423/110/103 163/113/106 20/114/107 208/115/108
f 263/111/104 423/110/103 208/115/108 50/116/109
f 77/117/110 262/118/111 424/119/112 259/120/113
f 262/118/111 51/121/114 165/122/115 424/119/112
f 424/119/112 165/122/115 18/7/7 210/6/6
f 259/120/113 424/119/112 210/6/6 52/5/5
f 107/123/116 331/124/117 425/125/118 359/126/119
f 331/124/117 39/127/120 197/128/121 425/125/118
f 425/125/118 197/128/121 16/129/122 324/130/123
f 359/126/119 425/125/118 324/130/123 100/131/124
f 106/132/125 330/133/126 426/134/127 358/135/128
f 330/133/126 42/136/129 200/137/130 426/134/127
f 426/134/127 200/137/130 15/138/131 325/139/132
f 358/135/128 426/134/127 325/139/132 101/140/133
f 105/141/134 329/142/135 427/143/136 357/144/137
f 329/142/135 44/145/138 202/146/139 427/143/136
f 427/143/136 202/146/139 13/147/140 326/148/141
f 357/144/137 427/143/136 326/148/141 102/149/142
f 73/150/143 246/151/144 428/152/145 243/153/146
f 246/151/144 58/154/147 172/155/148 428/152/145
f 428/152/145 172/155/148 3/156/149 141/157/150
f 243/153/146 428/152/145 141/157/150 27/158/151
f 72/159/152 242/160/153 429/161/154 239/162/155
f 242/160/153 62/163/156 176/164/157 429/161/154
f 429/161/154 176/164/157 22/165/157 223/166/154
f 239/162/155 429/161/154 223/166/154 65/167/155
f 128/168/158 376/169/159 430/170/160 406/171/161
f 376/169/159 60/172/162 218/173/163 430/170/160
f 430/170/160 218/173/163 24/174/163 373/175/160
f 406/171/161 430/170/160 373/175/160 125/176/161
f 127/177/164 375/178/165 431/179/166 405/180/167
f 375/178/165 63/181/14 177/182/168 431/179/166
f 431/179/166 177/182/168 23/183/168 374/184/166
f 405/180/167 431/179/166 374/184/166 126/185/167
f 69/186/169 230/187/170 432/188/171 227/189/172
f 230/187/170 59/190/29 217/191/168 432/188/171
f 432/188/171 217/191/168 23/192/168 226/193/171
f 227/189/172 432/188/171 226/193/171 68/194/172
f 60/195/162 229/196/173 433/197/174 218/198/163
f 229/196/173 69/186/169 227/189/172 433/197/174
f 433/197/174 227/189/172 68/194/172 182/199/174
f 218/198/163 433/197/174 182/199/174 24/200/163
f 17/201/175 160/202/176 434/203/177 174/204/178
f 160/202/176 46/205/179 228/206/180 434/203/177
f 434/203/177 228/206/180 69/186/169 229/196/173
f 174/204/178 434/203/177 229/196/173 60/195/162
f 46/205/179 204/207/181 435/208/182 228/206/180
f 204/207/181 10/209/31 173/210/30 435/208/182
f 435/208/182 173/210/30 59/190/29 230/187/170
f 228/206/180 435/208/182 230/187/170 69/186/169
f 103/211/183 327/212/184 436/213/185 356/214/186
f 327/212/184 70/215/187 231/216/185 436/213/185
f 436/213/185 231/216/185 67/217/185 319/218/185
f 356/214/186 436/213/185 319/218/185 95/219/186
f 96/220/188 183/221/189 437/222/190 355/223/191
f 183/221/189 25/224/192 232/225/193 437/222/190
f 437/222/190 232/225/193 70/215/187 327/212/184
f 355/223/191 437/222/190 327/212/184 103/211/183
f 115/226/24 139/227/23 438/228/194 404/229/195
f 139/227/23 2/230/16 221/231/15 438/228/194
f 438/228/194 221/231/15 63/181/14 375/178/165
f 404/229/195 438/228/194 375/178/165 127/177/164
f 104/232/196 328/233/197 439/234/198 354/235/199
f 328/233/197 71/236/197 235/237/198 439/234/198
f 439/234/198 235/237/198 66/238/198 318/239/198
f 354/235/199 439/234/198 318/239/198 94/240/199
f 93/241/200 317/242/201 440/243/202 353/244/203
f 317/242/201 53/245/201 236/246/202 440/243/202
f 440/243/202 236/246/202 71/236/197 328/233/197
f 353/244/203 440/243/202 328/233/197 104/232/196
f 124/247/204 372/248/205 441/249/206 403/250/207
f 372/248/205 17/251/175 174/252/178 441/249/206
f 441/249/206 174/252/178 60/172/162 376/169/159
f 403/250/207 441/249/206 376/169/159 128/168/158
f 57/253/208 241/254/209 442/255/210 215/256/211
f 241/254/209 72/159/152 239/162/155 442/255/210
f 442/255/210 239/162/155 65/167/155 179/257/210
f 215/256/211 442/255/210 179/257/210 21/258/211
f 6/259/67 154/260/212 443/261/213 171/262/214
f 154/260/212 40/263/215 240/264/216 443/261/213
f 443/261/213 240/264/216 72/159/152 241/254/209
f 171/262/214 443/261/213 241/254/209 57/253/208
f 40/263/215 198/265/217 444/266/218 240/264/216
f 198/265/217 14/267/219 220/268/220 444/266/218
f 444/266/218 220/268/220 62/163/156 242/160/153
f 240/264/216 444/266/218 242/160/153 72/159/152
f 61/269/221 245/270/222 445/271/223 219/272/224
f 245/270/222 73/150/143 243/153/146 445/271/223
f 445/271/223 243/153/146 27/158/151 185/273/225
f 219/272/224 445/271/223 185/273/225 1/274/226
f 21/258/211 179/257/210 446/275/210 175/276/211
f 179/257/210 65/167/155 244/277/155 446/275/210
f 446/275/210 244/277/155 73/150/143 245/270/222
f 175/276/211 446/275/210 245/270/222 61/269/221
f 65/167/155 223/166/154 447/278/154 244/277/155
f 223/166/154 22/165/157 216/279/157 447/278/154
f 447/278/154 216/279/157 58/154/147 246/151/144
f 244/277/155 447/278/154 246/151/144 73/150/143
f 129/280/227 377/281/228 448/282/229 402/283/230
f 377/281/228 74/284/228 247/285/229 448/282/229
f 448/282/229 247/285/229 56/286/231 369/287/231
f 402/283/230 448/282/229 369/287/231 121/9/9
f 120/288/232 368/289/233 449/290/234 401/291/235
f 368/289/233 55/292/233 248/293/234 449/290/234
f 449/290/234 248/293/234 74/284/228 377/281/228
f 401/291/235 449/290/234 377/281/228 129/280/227
f 101/294/133 325/295/132 450/296/236 352/297/237
f 325/295/132 15/298/131 158/299/238 450/296/236
f 450/296/236 158/299/238 44/145/138 329/142/135
f 352/297/237 450/296/236 329/142/135 105/141/134
f 130/300/239 378/301/240 451/302/241 400/303/242
f 378/301/240 75/304/240 251/305/241 451/302/241
f 451/302/241 251/305/241 55/306/233 368/307/233
f 400/303/242 451/302/241 368/307/233 120/308/232
f 119/309/243 367/310/244 452/311/245 399/312/246
f 367/310/244 54/313/244 252/314/245 452/311/245
f 452/311/245 252/314/245 75/304/240 378/301/240
f 399/312/246 452/311/245 378/301/240 130/300/239
f 100/131/124 324/130/123 453/315/247 351/316/248
f 324/130/123 16/129/122 156/317/249 453/315/247
f 453/315/247 156/317/249 42/136/129 330/133/126
f 351/316/248 453/315/247 330/133/126 106/132/125
f 131/318/250 379/319/251 454/320/252 398/321/253
f 379/319/251 76/322/254 255/323/252 454/320/252
f 454/320/252 255/323/252 54/313/244 367/310/244
f 398/321/253 454/320/252 367/310/244 119/309/243
f 124/247/204 211/324/201 455/325/255 397/326/256
f 211/324/201 53/245/201 256/327/255 455/325/255
f 455/325/255 256/327/255 76/322/254 379/319/251
f 397/326/256 455/325/255 379/319/251 131/318/250
f 93/241/200 167/328/257 456/329/258 350/330/259
f 167/328/257 14/331/219 153/332/260 456/329/258
f 456/329/258 153/332/260 39/127/120 331/124/117
f 350/330/259 456/329/258 331/124/117 107/123/116
f 29/333/261 261/334/262 457/335/263 143/336/264
f 261/334/262 77/117/110 259/120/113 457/335/263
f 457/335/263 259/120/113 52/5/5 166/337/265
f 143/336/264 457/335/263 166/337/265 9/338/266
f 11/339/267 164/340/268 458/341/269 187/342/270
f 164/340/268 50/343/109 260/344/271 458/341/269
f 458/341/269 260/344/271 77/117/110 261/334/262
f 187/342/270 458/341/269 261/334/262 29/333/261
f 50/343/109 208/345/108 459/346/272 260/344/271
f 208/345/108 20/347/107 209/348/273 459/346/272
f 459/346/272 209/348/273 51/121/114 262/118/111
f 260/344/271 459/346/272 262/118/111 77/117/110
f 33/349/274 265/350/275 460/351/276 147/352/277
f 265/350/275 78/108/101 263/111/104 460/351/276
f 460/351/276 263/111/104 50/116/109 164/353/268
f 147/352/277 460/351/276 164/353/268 11/354/267
f 12/355/278 162/356/279 461/357/280 191/358/281
f 162/356/279 48/107/100 264/359/282 461/357/280
f 461/357/280 264/359/282 78/108/101 265/350/275
f 191/358/281 461/357/280 265/350/275 33/349/274
f 48/107/100 206/106/99 462/360/283 264/359/282
f 206/106/99 19/105/98 207/361/284 462/360/283
f 462/360/283 207/361/284 49/112/105 266/109/102
f 264/359/282 462/360/283 266/109/102 78/108/101
f 36/362/285 269/363/286 463/364/287 150/365/288
f 269/363/286 79/99/92 267/102/95 463/364/287
f 463/364/287 267/102/95 48/107/100 162/356/279
f 150/365/288 463/364/287 162/356/279 12/355/278
f 10/209/31 204/207/181 464/366/289 194/367/290
f 204/207/181 46/205/179 268/368/291 464/366/289
f 464/366/289 268/368/291 79/99/92 269/363/286
f 194/367/290 464/366/289 269/363/286 36/362/285
f 46/205/179 160/202/176 465/369/292 268/368/291
f 160/202/176 17/201/175 205/370/293 465/369/292
f 465/369/292 205/370/293 47/103/96 270/100/93
f 268/368/291 465/369/292 270/100/93 79/99/92
f 44/145/138 273/371/294 466/372/295 202/146/139
f 273/371/294 80/91/84 271/94/87 466/372/295
f 466/372/295 271/94/87 45/98/91 159/373/296
f 202/146/139 466/372/295 159/373/296 13/147/140
f 15/298/131 157/374/297 467/375/298 158/299/238
f 157/374/297 43/376/83 272/377/299 467/375/298
f 467/375/298 272/377/299 80/91/84 273/371/294
f 158/299/238 467/375/298 273/371/294 44/145/138
f 43/376/83 201/378/82 468/379/300 272/377/299
f 201/378/82 7/52/49 145/51/48 468/379/300
f 468/379/300 145/51/48 31/50/47 274/92/85
f 272/377/299 468/379/300 274/92/85 80/91/84
f 42/380/129 277/381/301 469/382/302 200/383/130
f 277/381/301 81/82/77 275/85/80 469/382/302
f 469/382/302 275/85/80 43/90/83 157/384/297
f 200/383/130 469/382/302 157/384/297 15/385/131
f 16/386/122 155/387/303 470/388/304 156/389/249
f 155/387/303 41/81/76 276/390/305 470/388/304
f 470/388/304 276/390/305 81/82/77 277/381/301
f 156/389/249 470/388/304 277/381/301 42/380/129
f 41/81/76 199/80/75 471/391/306 276/390/305
f 199/80/75 8/79/58 148/392/57 471/391/306
f 471/391/306 148/392/57 34/86/56 278/83/78
f 276/390/305 471/391/306 278/83/78 81/82/77
f 39/393/120 281/394/307 472/395/308 197/396/121
f 281/394/307 82/73/70 279/76/73 472/395/308
f 472/395/308 279/76/73 41/81/76 155/387/303
f 197/396/121 472/395/308 155/387/303 16/386/122
f 14/267/219 198/265/217 473/397/309 153/398/260
f 198/265/217 40/263/215 280/399/310 473/397/309
f 473/397/309 280/399/310 82/73/70 281/394/307
f 153/398/260 473/397/309 281/394/307 39/393/120
f 40/263/215 154/260/212 474/400/311 280/399/310
f 154/260/212 6/259/67 151/401/66 474/400/311
f 474/400/311 151/401/66 37/77/65 282/74/71
f 280/399/310 474/400/311 282/74/71 82/73/70
f 132/402/312 380/403/313 475/404/314 396/405/315
f 380/403/313 83/406/313 283/407/314 475/404/314
f 475/404/314 283/407/314 38/408/316 366/409/316
f 396/405/315 475/404/314 366/409/316 118/36/33
f 117/410/317 365/411/318 476/412/319 395/413/320
f 365/411/318 35/414/318 284/415/319 476/412/319
f 476/412/319 284/415/319 83/406/313 380/403/313
f 395/413/320 476/412/319 380/403/313 132/402/312
f 98/63/60 322/62/59 477/416/321 349/417/322
f 322/62/59 8/61/58 195/418/74 477/416/321
f 477/416/321 195/418/74 37/68/65 332/65/62
f 349/417/322 477/416/321 332/65/62 108/64/61
f 133/419/323 381/420/324 478/421/325 394/422/326
f 381/420/324 84/423/324 287/424/325 478/421/325
f 478/421/325 287/424/325 35/414/318 365/411/318
f 394/422/326 478/421/325 365/411/318 117/410/317
f 116/425/327 364/426/328 479/427/329 393/428/330
f 364/426/328 32/429/328 288/430/329 479/427/329
f 479/427/329 288/430/329 84/423/324 381/420/324
f 393/428/330 479/427/329 381/420/324 133/419/323
f 97/431/51 321/432/50 480/433/331 348/434/332
f 321/432/50 7/435/49 192/436/81 480/433/331
f 480/433/331 192/436/81 34/59/56 333/56/53
f 348/434/332 480/433/331 333/56/53 109/55/52
f 134/437/333 382/438/334 481/439/335 392/440/336
f 382/438/334 85/441/334 291/442/335 481/439/335
f 481/439/335 291/442/335 32/443/328 364/444/328
f 392/440/336 481/439/335 364/444/328 116/445/327
f 123/446/337 188/447/338 482/448/339 391/449/340
f 188/447/338 30/450/338 292/451/339 482/448/339
f 482/448/339 292/451/339 85/441/334 382/438/334
f 391/449/340 482/448/339 382/438/334 134/437/333
f 92/452/341 144/453/342 483/454/343 347/455/344
f 144/453/342 5/96/89 189/95/88 483/454/343
f 483/454/343 189/95/88 31/50/47 334/47/44
f 347/455/344 483/454/343 334/47/44 110/46/43
f 111/456/345 335/457/346 484/458/347 346/459/348
f 335/457/346 86/460/349 295/461/350 484/458/347
f 484/458/347 295/461/350 26/462/351 315/463/352
f 346/459/348 484/458/347 315/463/352 91/464/353
f 94/240/199 318/239/198 485/465/198 345/466/199
f 318/239/198 66/238/198 296/467/198 485/465/198
f 485/465/198 296/467/198 86/460/349 335/457/346
f 345/466/199 485/465/198 335/457/346 111/456/345
f 125/176/161 373/175/160 486/468/160 390/469/161
f 373/175/160 24/174/163 178/470/163 486/468/160
f 486/468/160 178/470/163 64/41/38 383/38/35
f 390/469/161 486/468/160 383/38/35 135/37/34
f 112/471/354 336/472/355 487/473/356 344/474/357
f 336/472/355 87/475/355 299/476/356 487/473/356
f 487/473/356 299/476/356 38/408/316 196/477/316
f 344/474/357 487/473/356 196/477/316 99/72/69
f 95/219/186 319/218/185 488/478/185 343/479/186
f 319/218/185 67/217/185 300/480/185 488/478/185
f 488/478/185 300/480/185 87/475/355 336/472/355
f 343/479/186 488/478/185 336/472/355 112/471/354
f 126/185/167 374/184/166 489/481/166 389/482/167
f 374/184/166 23/183/168 217/483/168 489/481/166
f 489/481/166 217/483/168 59/32/29 384/29/26
f 389/482/167 489/481/166 384/29/26 136/28/25
f 113/484/358 337/485/359 490/486/360 342/487/361
f 337/485/359 88/488/362 303/489/363 490/486/360
f 490/486/360 303/489/363 25/490/192 183/491/189
f 342/487/361 490/486/360 183/491/189 96/492/188
f 91/493/353 315/494/352 491/495/364 341/496/365
f 315/494/352 26/497/351 304/498/366 491/495/364
f 491/495/364 304/498/366 88/488/362 337/485/359
f 341/496/365 491/495/364 337/485/359 113/484/358
f 122/499/42 370/500/41 492/501/367 388/502/368
f 370/500/41 4/503/40 186/504/369 492/501/367
f 492/501/367 186/504/369 28/23/18 385/20/20
f 388/502/368 492/501/367 385/20/20 137/19/19
f 64/505/38 309/506/370 493/507/371 222/508/39
f 309/506/370 89/10/10 307/13/13 493/507/371
f 493/507/371 307/13/13 28/18/18 186/509/369
f 222/508/39 493/507/371 186/509/369 4/510/40
f 24/200/163 182/199/174 494/511/174 178/512/163
f 182/199/174 68/194/172 308/513/172 494/511/174
f 494/511/174 308/513/172 89/10/10 309/506/370
f 178/512/163 494/511/174 309/506/370 64/505/38
f 68/194/172 226/193/171 495/514/171 308/513/172
f 226/193/171 23/192/168 177/515/168 495/514/171
f 495/514/171 177/515/168 63/14/14 310/11/11
f 308/513/172 495/514/171 310/11/11 89/10/10
f 114/516/372 338/517/373 496/518/374 340/519/375
f 338/517/373 90/520/373 311/521/374 496/518/374
f 496/518/374 311/521/374 56/286/231 214/522/231
f 340/519/375 496/518/374 214/522/231 102/149/142
f 92/452/341 316/523/338 497/524/376 339/525/377
f 316/523/338 30/450/338 312/526/376 497/524/376
f 497/524/376 312/526/376 90/520/373 338/517/373
f 339/525/377 497/524/376 338/517/373 114/516/372
f 123/446/337 371/527/378 498/528/379 387/529/380
f 371/527/378 9/338/266 166/337/265 498/528/379
f 498/528/379 166/337/265 52/5/5 386/2/2
f 387/529/380 498/528/379 386/2/2 138/1/1
f 5/96/89 144/453/342 499/530/381 203/97/90
f 144/453/342 92/452/341 339/525/377 499/530/381
f 499/530/381 339/525/377 114/516/372 313/531/382
f 203/97/90 499/530/381 313/531/382 45/98/91
f 45/98/91 313/531/382 500/532/383 159/373/296
f 313/531/382 114/516/372 340/519/375 500/532/383
f 500/532/383 340/519/375 102/149/142 326/148/141
f 159/373/296 500/532/383 326/148/141 13/147/140
f 3/533/149 140/534/384 501/535/385 141/536/150
f 140/534/384 91/493/353 341/496/365 501/535/385
f 501/535/385 341/496/365 113/484/358 305/537/386
f 141/536/150 501/535/385 305/537/386 27/538/151
f 27/538/151 305/537/386 502/539/387 185/540/225
f 305/537/386 113/484/358 342/487/361 502/539/387
f 502/539/387 342/487/361 96/492/188 320/541/388
f 185/540/225 502/539/387 320/541/388 1/542/226
f 21/543/211 181/544/389 503/545/389 215/546/211
f 181/544/389 95/219/186 343/479/186 503/545/389
f 503/545/389 343/479/186 112/471/354 301/547/390
f 215/546/211 503/545/389 301/547/390 57/548/208
f 57/548/208 301/547/390 504/549/391 171/550/214
f 301/547/390 112/471/354 344/474/357 504/549/391
f 504/549/391 344/474/357 99/72/69 323/71/68
f 171/550/214 504/549/391 323/71/68 6/70/67
f 22/551/157 180/552/392 505/553/392 216/554/157
f 180/552/392 94/240/199 345/466/199 505/553/392
f 505/553/392 345/466/199 111/456/345 297/555/393
f 216/554/157 505/553/392 297/555/393 58/556/147
f 58/556/147 297/555/393 506/557/394 172/558/148
f 297/555/393 111/456/345 346/459/348 506/557/394
f 506/557/394 346/459/348 91/464/353 140/559/384
f 172/558/148 506/557/394 140/559/384 3/560/149
f 30/450/338 316/523/338 507/561/339 292/451/339
f 316/523/338 92/452/341 347/455/344 507/561/339
f 507/561/339 347/455/344 110/46/43 294/562/334
f 292/451/339 507/561/339 294/562/334 85/441/334
f 32/429/328 190/563/328 508/564/329 288/430/329
f 190/563/328 97/431/51 348/434/332 508/564/329
f 508/564/329 348/434/332 109/55/52 290/565/324
f 288/430/329 508/564/329 290/565/324 84/423/324
f 35/414/318 193/566/318 509/567/319 284/415/319
f 193/566/318 98/63/60 349/417/322 509/567/319
f 509/567/319 349/417/322 108/64/61 286/568/313
f 284/415/319 509/567/319 286/568/313 83/406/313
f 53/245/201 317/242/201 510/569/255 256/327/255
f 317/242/201 93/241/200 350/330/259 510/569/255
f 510/569/255 350/330/259 107/123/116 258/570/254
f 256/327/255 510/569/255 258/570/254 76/322/254
f 54/313/244 212/571/244 511/572/245 252/314/245
f 212/571/244 100/131/124 351/316/248 511/572/245
f 511/572/245 351/316/248 106/132/125 254/573/240
f 252/314/245 511/572/245 254/573/240 75/304/240
f 55/292/233 213/574/233 512/575/234 248/293/234
f 213/574/233 101/294/133 352/297/237 512/575/234
f 512/575/234 352/297/237 105/141/134 250/576/395
f 248/293/234 512/575/234 250/576/395 74/284/228
f 14/331/219 167/328/257 513/577/396 220/578/220
f 167/328/257 93/241/200 353/244/203 513/577/396
f 513/577/396 353/244/203 104/232/196 237/579/397
f 220/578/220 513/577/396 237/579/397 62/580/156
f 62/580/156 237/579/397 514/581/392 176/582/157
f 237/579/397 104/232/196 354/235/199 514/581/392
f 514/581/392 354/235/199 94/240/199 180/552/392
f 176/582/157 514/581/392 180/552/392 22/551/157
f 1/583/226 320/584/388 515/585/398 219/586/224
f 320/584/388 96/220/188 355/223/191 515/585/398
f 515/585/398 355/223/191 103/211/183 233/587/399
f 219/586/224 515/585/398 233/587/399 61/588/221
f 61/588/221 233/587/399 516/589/389 175/590/211
f 233/587/399 103/211/183 356/214/186 516/589/389
f 516/589/389 356/214/186 95/219/186 181/544/389
f 175/590/211 516/589/389 181/544/389 21/543/211
f 74/284/228 250/576/395 517/591/229 247/285/229
f 250/576/395 105/141/134 357/144/137 517/591/229
f 517/591/229 357/144/137 102/149/142 214/522/231
f 247/285/229 517/591/229 214/522/231 56/286/231
f 75/304/240 254/573/240 518/592/241 251/305/241
f 254/573/240 106/132/125 358/135/128 518/592/241
f 518/592/241 358/135/128 101/140/133 213/593/233
f 251/305/241 518/592/241 213/593/233 55/306/233
f 76/322/254 258/570/254 519/594/252 255/323/252
f 258/570/254 107/123/116 359/126/119 519/594/252
f 519/594/252 359/126/119 100/131/124 212/571/244
f 255/323/252 519/594/252 212/571/244 54/313/244
f 83/406/313 286/568/313 520/595/314 283/407/314
f 286/568/313 108/64/61 360/67/64 520/595/314
f 520/595/314 360/67/64 99/72/69 196/477/316
f 283/407/314 520/595/314 196/477/316 38/408/316
f 84/423/324 290/565/324 521/596/325 287/424/325
f 290/565/324 109/55/52 361/58/55 521/596/325
f 521/596/325 361/58/55 98/63/60 193/566/318
f 287/424/325 521/596/325 193/566/318 35/414/318
f 85/441/334 294/562/334 522/597/335 291/442/335
f 294/562/334 110/46/43 362/49/46 522/597/335
f 522/597/335 362/49/46 97/54/51 190/598/328
f 291/442/335 522/597/335 190/598/328 32/443/328
f 30/450/338 188/447/338 523/599/376 312/526/376
f 188/447/338 123/446/337 387/529/380 523/599/376
f 523/599/376 387/529/380 138/1/1 314/600/373
f 312/526/376 523/599/376 314/600/373 90/520/373
f 26/497/351 184/601/400 524/602/401 304/498/366
f 184/601/400 122/499/42 388/502/368 524/602/401
f 524/602/401 388/502/368 137/19/19 306/603/402
f 304/498/366 524/602/401 306/603/402 88/488/362
f 67/217/185 225/604/185 525/605/185 300/480/185
f 225/604/185 126/185/167 389/482/167 525/605/185
f 525/605/185 389/482/167 136/28/25 302/606/355
f 300/480/185 525/605/185 302/606/355 87/475/355
f 66/238/198 224/607/198 526/608/198 296/467/198
f 224/607/198 125/176/161 390/469/161 526/608/198
f 526/608/198 390/469/161 135/37/34 298/609/403
f 296/467/198 526/608/198 298/609/403 86/460/349
f 9/338/266 371/527/378 527/610/404 143/336/264
f 371/527/378 123/446/337 391/449/340 527/610/404
f 527/610/404 391/449/340 134/437/333 293/611/405
f 143/336/264 527/610/404 293/611/405 29/333/261
f 29/333/261 293/611/405 528/612/406 187/342/270
f 293/611/405 134/437/333 392/440/336 528/612/406
f 528/612/406 392/440/336 116/445/327 146/613/407
f 187/342/270 528/612/406 146/613/407 11/339/267
f 11/614/267 146/615/407 529/616/408 147/617/277
f 146/615/407 116/425/327 393/428/330 529/616/408
f 529/616/408 393/428/330 133/419/323 289/618/409
f 147/617/277 529/616/408 289/618/409 33/619/274
f 33/619/274 289/618/409 530/620/410 191/621/281
f 289/618/409 133/419/323 394/422/326 530/620/410
f 530/620/410 394/422/326 117/410/317 149/622/411
f 191/621/281 530/620/410 149/622/411 12/623/278
f 12/623/278 149/622/411 531/624/412 150/625/288
f 149/622/411 117/410/317 395/413/320 531/624/412
f 531/624/412 395/413/320 132/402/312 285/626/413
f 150/625/288 531/624/412 285/626/413 36/627/285
f 36/627/285 285/626/413 532/628/414 194/629/290
f 285/626/413 132/402/312 396/405/315 532/628/414
f 532/628/414 396/405/315 118/36/33 152/35/32
f 194/629/290 532/628/414 152/35/32 10/34/31
f 17/251/175 372/248/205 533/630/415 205/631/293
f 372/248/205 124/247/204 397/326/256 533/630/415
f 533/630/415 397/326/256 131/318/250 257/632/416
f 205/631/293 533/630/415 257/632/416 47/633/96
f 47/633/96 257/632/416 534/634/417 161/635/97
f 257/632/416 131/318/250 398/321/253 534/634/417
f 534/634/417 398/321/253 119/309/243 168/636/418
f 161/635/97 534/634/417 168/636/418 19/637/98
f 19/637/98 168/636/418 535/638/419 207/639/284
f 168/636/418 119/309/243 399/312/246 535/638/419
f 535/638/419 399/312/246 130/300/239 253/640/420
f 207/639/284 535/638/419 253/640/420 49/641/105
f 49/641/105 253/640/420 536/642/421 163/643/106
f 253/640/420 130/300/239 400/303/242 536/642/421
f 536/642/421 400/303/242 120/308/232 169/644/422
f 163/643/106 536/642/421 169/644/422 20/645/107
f 20/347/107 169/646/422 537/647/423 209/348/273
f 169/646/422 120/288/232 401/291/235 537/647/423
f 537/647/423 401/291/235 129/280/227 249/648/424
f 209/348/273 537/647/423 249/648/424 51/121/114
f 51/121/114 249/648/424 538/649/425 165/122/115
f 249/648/424 129/280/227 402/283/230 538/649/425
f 538/649/425 402/283/230 121/9/9 170/8/8
f 165/122/115 538/649/425 170/8/8 18/7/7
f 53/245/201 211/324/201 539/650/202 236/246/202
f 211/324/201 124/247/204 403/250/207 539/650/202
f 539/650/202 403/250/207 128/168/158 238/651/197
f 236/246/202 539/650/202 238/651/197 71/236/197
f 25/224/192 363/652/426 540/653/427 232/225/193
f 363/652/426 115/226/24 404/229/195 540/653/427
f 540/653/427 404/229/195 127/177/164 234/654/428
f 232/225/193 540/653/427 234/654/428 70/215/187
f 70/215/187 234/654/428 541/655/185 231/216/185
f 234/654/428 127/177/164 405/180/167 541/655/185
f 541/655/185 405/180/167 126/185/167 225/604/185
f 231/216/185 541/655/185 225/604/185 67/217/185
f 71/236/197 238/651/197 542/656/198 235/237/198
f 238/651/197 128/168/158 406/171/161 542/656/198
f 542/656/198 406/171/161 125/176/161 224/607/198
f 235/237/198 542/656/198 224/607/198 66/238/198
f 86/460/349 298/609/403 543/657/429 295/461/350
f 298/609/403 135/37/34 407/40/37 543/657/429
f 543/657/429 407/40/37 122/45/42 184/658/400
f 295/461/350 543/657/429 184/658/400 26/462/351
f 87/475/355 302/606/355 544/659/356 299/476/356
f 302/606/355 136/28/25 408/31/28 544/659/356
f 544/659/356 408/31/28 118/36/33 366/409/316
f 299/476/356 544/659/356 366/409/316 38/408/316
f 88/488/362 306/603/402 545/660/430 303/489/363
f 306/603/402 137/19/19 409/22/22 545/660/430
f 545/660/430 409/22/22 115/27/24 363/661/426
f 303/489/363 545/660/430 363/661/426 25/490/192
f 90/520/373 314/600/373 546/662/374 311/521/374
f 314/600/373 138/1/1 410/4/4 546/662/374
f 546/662/374 410/4/4 121/9/9 369/287/231
f 311/521/374 546/662/374 369/287/231 56/286/231
