# Blender MTL File: 'Bike.blend'
# Material Count: 1

newmtl Batterie
Ns 225.000000
Ka 1.000000 1.000000 1.000000
Kd 0.066807 0.066807 0.066807
Ks 0.809524 0.809524 0.809524
Ke 0.000000 0.000000 0.000000
Ni 1.450000
d 1.000000
illum 2
