# Blender v2.81 (sub 16) OBJ File: 'Bike.blend'
# www.blender.org
mtllib ecran.mtl
o Cube.004
v 0.183448 1.845315 0.718271
v 0.183448 1.656158 0.718271
v 0.199745 1.687609 0.719000
v 0.157767 1.646068 0.719000
v 0.188929 1.653085 0.718271
v 0.196759 1.649138 0.718271
v 0.157767 1.855402 0.719000
v 0.199745 1.813863 0.719000
v 0.188929 1.848388 0.718271
v 0.196759 1.852334 0.718271
v 0.118776 1.692304 0.777199
v 0.153593 1.718834 0.777199
v 0.149316 1.696581 0.777199
v 0.156866 1.646971 0.749412
v 0.198925 1.688373 0.749413
v 0.194793 1.651103 0.749413
v 0.137318 1.670160 0.773064
v 0.175737 1.704004 0.773064
v 0.171501 1.674396 0.773064
v 0.150958 1.653945 0.764688
v 0.191952 1.693096 0.764687
v 0.187775 1.658122 0.764688
v 0.153593 1.782639 0.777199
v 0.118776 1.809169 0.777199
v 0.149316 1.804891 0.777199
v 0.198925 1.813100 0.749413
v 0.156866 1.854501 0.749413
v 0.194793 1.850369 0.749413
v 0.175737 1.797469 0.773064
v 0.137318 1.831313 0.773064
v 0.171501 1.827076 0.773064
v 0.191952 1.808377 0.764687
v 0.150958 1.847528 0.764688
v 0.187775 1.843351 0.764688
v 0.118776 1.809169 0.765963
v 0.149316 1.804892 0.765963
v 0.153593 1.782639 0.765963
v 0.149316 1.696581 0.765963
v 0.118776 1.692304 0.765963
v 0.153593 1.718834 0.765963
v -0.183448 1.845315 0.718271
v -0.183448 1.656158 0.718271
v -0.199745 1.687609 0.719000
v -0.157767 1.646068 0.719000
v -0.188929 1.653085 0.718271
v -0.196759 1.649138 0.718271
v -0.157767 1.855402 0.719000
v -0.199745 1.813863 0.719000
v -0.188929 1.848388 0.718271
v -0.196759 1.852335 0.718271
v -0.118776 1.692304 0.777199
v -0.153593 1.718834 0.777199
v -0.149316 1.696581 0.777199
v -0.156866 1.646971 0.749413
v -0.198925 1.688373 0.749413
v -0.194793 1.651104 0.749413
v -0.137318 1.670160 0.773064
v -0.175737 1.704004 0.773064
v -0.171501 1.674396 0.773064
v -0.150958 1.653945 0.764688
v -0.191952 1.693096 0.764688
v -0.187775 1.658122 0.764687
v -0.153593 1.782639 0.777199
v -0.118776 1.809169 0.777199
v -0.149316 1.804891 0.777199
v -0.198925 1.813100 0.749413
v -0.156866 1.854501 0.749412
v -0.194793 1.850369 0.749412
v -0.175737 1.797469 0.773064
v -0.137318 1.831313 0.773064
v -0.171501 1.827076 0.773064
v -0.191952 1.808377 0.764688
v -0.150958 1.847528 0.764688
v -0.187775 1.843351 0.764688
v 0.000000 1.856023 0.719000
v 0.000000 1.855145 0.749412
v 0.000000 1.809836 0.777199
v 0.000000 1.831973 0.773064
v 0.000000 1.848179 0.764688
v 0.000000 1.645442 0.719000
v 0.000000 1.646327 0.749412
v 0.000000 1.669500 0.773064
v 0.000000 1.691637 0.777199
v 0.000000 1.653294 0.764688
v 0.000000 1.845315 0.718271
v 0.000000 1.656158 0.718271
v -0.118776 1.809169 0.765963
v -0.149316 1.804892 0.765963
v -0.153593 1.782639 0.765963
v -0.149316 1.696581 0.765963
v -0.118776 1.692304 0.765963
v -0.153593 1.718834 0.765963
v 0.000000 1.809835 0.765963
v 0.000000 1.691637 0.765963
v 0.000000 1.849338 0.718271
v 0.000000 1.651868 0.718271
v 0.091724 1.845315 0.718271
v 0.183448 1.750736 0.718271
v 0.194727 1.683949 0.718271
v 0.198434 1.657440 0.719000
v 0.188334 1.647395 0.719000
v 0.160275 1.649213 0.718271
v 0.192624 1.651193 0.718271
v 0.160275 1.852220 0.718271
v 0.188334 1.854077 0.719000
v 0.198434 1.844033 0.719000
v 0.194727 1.817524 0.718271
v 0.192624 1.850280 0.718271
v 0.164341 1.829792 0.773064
v 0.128366 1.820628 0.775479
v 0.142583 1.807634 0.777199
v 0.160794 1.816370 0.775479
v 0.174217 1.820488 0.773064
v 0.152058 1.799195 0.777199
v 0.165053 1.790309 0.775479
v 0.142583 1.693839 0.777199
v 0.128366 1.680844 0.775479
v 0.164341 1.671680 0.773064
v 0.160794 1.685103 0.775479
v 0.152058 1.702278 0.777199
v 0.174217 1.680984 0.773064
v 0.165053 1.711164 0.775479
v 0.180326 1.846029 0.764688
v 0.145020 1.840480 0.769424
v 0.180697 1.836273 0.769424
v 0.190453 1.836133 0.764688
v 0.184904 1.803629 0.769424
v 0.145020 1.660993 0.769424
v 0.180326 1.655444 0.764688
v 0.180697 1.665200 0.769424
v 0.190453 1.665340 0.764688
v 0.184904 1.697844 0.769424
v 0.187236 1.853018 0.749413
v 0.154803 1.852075 0.758688
v 0.192348 1.847924 0.758688
v 0.197443 1.842894 0.749413
v 0.196499 1.811451 0.758688
v 0.154803 1.649398 0.758688
v 0.187236 1.648455 0.749413
v 0.192348 1.653549 0.758688
v 0.197443 1.658578 0.749413
v 0.196499 1.690022 0.758688
v 0.199833 1.687748 0.735279
v 0.195789 1.650108 0.735279
v 0.157649 1.646064 0.735279
v 0.199833 1.813725 0.735279
v 0.195789 1.851364 0.735279
v 0.157649 1.855409 0.735279
v 0.185968 1.654703 0.718271
v 0.089498 1.855065 0.749413
v 0.185968 1.846769 0.718271
v 0.200198 1.750736 0.719000
v 0.199409 1.750736 0.749413
v 0.078240 1.669583 0.773064
v 0.154093 1.750736 0.777199
v 0.086093 1.848097 0.764687
v 0.176232 1.750737 0.773064
v 0.192440 1.750736 0.764688
v 0.090030 1.855943 0.719000
v 0.067572 1.809752 0.777199
v 0.078240 1.831890 0.773064
v 0.000000 1.852722 0.758688
v 0.000000 1.841136 0.769424
v 0.000000 1.821292 0.775479
v 0.000000 1.856051 0.735279
v 0.090030 1.645523 0.719000
v 0.089498 1.646408 0.749413
v 0.067572 1.691721 0.777199
v 0.086093 1.653376 0.764687
v 0.000000 1.645422 0.735279
v 0.000000 1.660337 0.769424
v 0.000000 1.680181 0.775479
v 0.000000 1.648751 0.758688
v 0.118776 1.692304 0.771581
v 0.091724 1.656158 0.718271
v 0.000000 1.847062 0.718271
v -0.000000 1.648794 0.718271
v 0.142583 1.807634 0.765963
v 0.152058 1.799195 0.765963
v 0.142583 1.693839 0.765963
v 0.152058 1.702278 0.765963
v 0.154093 1.750737 0.765963
v 0.067572 1.809752 0.765963
v 0.067572 1.691721 0.765963
v 0.000000 1.750736 0.765963
v 0.000000 1.691637 0.771581
v 0.153593 1.782639 0.771581
v 0.153593 1.718834 0.771581
v 0.118776 1.809169 0.771581
v 0.149316 1.804891 0.771581
v 0.149316 1.696582 0.771581
v 0.000000 1.809835 0.771581
v 0.000000 1.852495 0.718271
v 0.093188 1.849189 0.718271
v 0.189474 1.750736 0.718271
v 0.000000 1.654227 0.718271
v 0.093188 1.652099 0.718271
v -0.091724 1.845315 0.718271
v -0.183448 1.750736 0.718271
v -0.194727 1.683949 0.718271
v -0.198434 1.657440 0.719000
v -0.188334 1.647395 0.719000
v -0.160275 1.649213 0.718271
v -0.192624 1.651193 0.718271
v -0.160275 1.852220 0.718271
v -0.188334 1.854077 0.719000
v -0.198434 1.844033 0.719000
v -0.194727 1.817524 0.718271
v -0.192624 1.850280 0.718271
v -0.164341 1.829792 0.773064
v -0.128366 1.820628 0.775479
v -0.142583 1.807634 0.777199
v -0.160794 1.816370 0.775479
v -0.174217 1.820488 0.773064
v -0.152058 1.799195 0.777199
v -0.165053 1.790309 0.775479
v -0.142583 1.693839 0.777199
v -0.128366 1.680844 0.775479
v -0.164341 1.671681 0.773064
v -0.160794 1.685103 0.775479
v -0.152058 1.702278 0.777199
v -0.174217 1.680984 0.773064
v -0.165053 1.711164 0.775479
v -0.180326 1.846029 0.764687
v -0.145020 1.840480 0.769424
v -0.180697 1.836273 0.769424
v -0.190453 1.836133 0.764687
v -0.184904 1.803629 0.769424
v -0.145020 1.660993 0.769424
v -0.180326 1.655444 0.764688
v -0.180697 1.665200 0.769424
v -0.190453 1.665340 0.764688
v -0.184904 1.697844 0.769424
v -0.187236 1.853018 0.749413
v -0.154803 1.852075 0.758688
v -0.192348 1.847924 0.758688
v -0.197443 1.842894 0.749413
v -0.196499 1.811451 0.758688
v -0.154803 1.649398 0.758688
v -0.187236 1.648455 0.749413
v -0.192348 1.653549 0.758688
v -0.197443 1.658579 0.749413
v -0.196499 1.690022 0.758688
v -0.199833 1.687748 0.735279
v -0.195789 1.650108 0.735279
v -0.157649 1.646064 0.735279
v -0.199833 1.813725 0.735279
v -0.195789 1.851364 0.735279
v -0.157649 1.855408 0.735279
v -0.185968 1.654703 0.718271
v -0.089498 1.855065 0.749413
v -0.185968 1.846769 0.718271
v -0.200198 1.750736 0.719000
v -0.199409 1.750736 0.749413
v -0.078240 1.669582 0.773064
v -0.154093 1.750736 0.777199
v -0.086093 1.848097 0.764688
v -0.176232 1.750736 0.773064
v -0.192440 1.750736 0.764688
v -0.090030 1.855943 0.719000
v -0.067572 1.809752 0.777199
v -0.078240 1.831890 0.773064
v -0.090030 1.645523 0.719000
v -0.089498 1.646408 0.749413
v -0.067572 1.691721 0.777199
v -0.086093 1.653376 0.764688
v -0.118776 1.692304 0.771581
v -0.091724 1.656158 0.718271
v -0.142583 1.807634 0.765963
v -0.152058 1.799195 0.765963
v -0.142583 1.693839 0.765963
v -0.152058 1.702278 0.765963
v -0.154093 1.750736 0.765963
v -0.067572 1.809752 0.765963
v -0.067572 1.691720 0.765963
v -0.153593 1.782639 0.771581
v -0.153593 1.718834 0.771581
v -0.118776 1.809169 0.771581
v -0.149316 1.804891 0.771581
v -0.149316 1.696581 0.771581
v -0.093188 1.849190 0.718271
v -0.189474 1.750736 0.718271
v -0.093188 1.652099 0.718271
v 0.088309 1.648831 0.758688
v 0.194616 1.750736 0.718271
v 0.073089 1.680263 0.775479
v 0.067572 1.691720 0.771581
v 0.082674 1.660419 0.769424
v 0.196985 1.750736 0.758688
v 0.185396 1.750736 0.769424
v 0.165551 1.750736 0.775479
v 0.089950 1.645502 0.735279
v 0.200315 1.750736 0.735279
v 0.195265 1.658388 0.718271
v 0.186157 1.649242 0.718271
v 0.186157 1.852224 0.718271
v 0.195265 1.843085 0.718271
v 0.153838 1.819100 0.775479
v 0.163524 1.810209 0.775479
v 0.153838 1.682373 0.775479
v 0.163524 1.691263 0.775479
v 0.173370 1.838970 0.769424
v 0.183395 1.829325 0.769424
v 0.173370 1.662502 0.769424
v 0.183395 1.672148 0.769424
v 0.184826 1.850585 0.758688
v 0.195010 1.840536 0.758688
v 0.184826 1.650887 0.758688
v 0.195010 1.660937 0.758688
v 0.198373 1.657668 0.735279
v 0.188166 1.647524 0.735279
v 0.198373 1.843804 0.735279
v 0.188166 1.853949 0.735279
v 0.092920 1.654364 0.718271
v 0.088309 1.852641 0.758688
v 0.082674 1.841054 0.769424
v 0.073089 1.821209 0.775479
v 0.089950 1.855970 0.735279
v 0.092920 1.846982 0.718271
v 0.110941 1.750737 0.765963
v 0.154093 1.750736 0.771581
v 0.142583 1.807634 0.771581
v 0.152058 1.702278 0.771581
v 0.067572 1.809752 0.771581
v 0.142583 1.693839 0.771581
v 0.152058 1.799195 0.771581
v 0.090780 1.852408 0.718271
v 0.186022 1.750736 0.718271
v 0.090780 1.648934 0.718271
v -0.088309 1.648831 0.758688
v -0.194616 1.750737 0.718271
v -0.073089 1.680263 0.775479
v -0.067572 1.691720 0.771581
v -0.082674 1.660419 0.769424
v -0.196985 1.750736 0.758688
v -0.185396 1.750736 0.769424
v -0.165551 1.750736 0.775479
v -0.089950 1.645502 0.735279
v -0.200315 1.750736 0.735279
v -0.195265 1.658388 0.718271
v -0.186157 1.649242 0.718271
v -0.186157 1.852225 0.718271
v -0.195265 1.843086 0.718271
v -0.153838 1.819100 0.775479
v -0.163524 1.810210 0.775479
v -0.153838 1.682373 0.775479
v -0.163524 1.691263 0.775479
v -0.173370 1.838970 0.769424
v -0.183395 1.829325 0.769424
v -0.173370 1.662503 0.769424
v -0.183395 1.672148 0.769424
v -0.184826 1.850585 0.758688
v -0.195010 1.840536 0.758688
v -0.184826 1.650887 0.758688
v -0.195010 1.660937 0.758688
v -0.198373 1.657668 0.735279
v -0.188166 1.647524 0.735279
v -0.198373 1.843804 0.735279
v -0.188166 1.853949 0.735279
v -0.092920 1.654364 0.718271
v -0.088309 1.852641 0.758688
v -0.082674 1.841054 0.769424
v -0.073089 1.821209 0.775479
v -0.089950 1.855970 0.735279
v -0.092920 1.846982 0.718271
v -0.110941 1.750736 0.765963
v -0.154093 1.750736 0.771581
v -0.142583 1.807634 0.771581
v -0.152058 1.702278 0.771581
v -0.067572 1.809752 0.771581
v -0.142583 1.693839 0.771581
v -0.152058 1.799195 0.771581
v -0.090780 1.852408 0.718271
v -0.186022 1.750736 0.718271
v -0.090780 1.648934 0.718271
v 0.199745 1.687609 0.719000
v 0.198434 1.657440 0.719000
v 0.196759 1.649138 0.718271
v 0.196759 1.649138 0.718271
v 0.188334 1.647395 0.719000
v 0.157767 1.646068 0.719000
v 0.157767 1.855402 0.719000
v 0.188334 1.854077 0.719000
v 0.196759 1.852334 0.718271
v 0.196759 1.852334 0.718271
v 0.198434 1.844033 0.719000
v 0.199745 1.813863 0.719000
v 0.118776 1.809169 0.777199
v 0.142583 1.807634 0.777199
v 0.149316 1.804891 0.777199
v 0.149316 1.804891 0.777199
v 0.152058 1.799195 0.777199
v 0.153593 1.782639 0.777199
v 0.149316 1.696581 0.777199
v 0.149316 1.696581 0.777199
v 0.142583 1.693839 0.777199
v 0.118776 1.692304 0.777199
v 0.153593 1.718834 0.777199
v 0.152058 1.702278 0.777199
v 0.192348 1.847924 0.758688
v 0.194793 1.850369 0.749413
v 0.194793 1.651103 0.749413
v 0.192348 1.653549 0.758688
v 0.195789 1.650108 0.735279
v 0.195789 1.851364 0.735279
v 0.200198 1.750736 0.719000
v 0.154093 1.750736 0.777199
v 0.090030 1.855943 0.719000
v 0.000000 1.856023 0.719000
v 0.067572 1.809752 0.777199
v 0.000000 1.809836 0.777199
v 0.090030 1.645523 0.719000
v 0.000000 1.645442 0.719000
v 0.067572 1.691721 0.777199
v 0.000000 1.691637 0.777199
v 0.118776 1.809169 0.765963
v 0.142583 1.807634 0.765963
v 0.149316 1.804892 0.765963
v 0.149316 1.804892 0.765963
v 0.152058 1.799195 0.765963
v 0.153593 1.782639 0.765963
v 0.149316 1.696581 0.765963
v 0.149316 1.696581 0.765963
v 0.142583 1.693839 0.765963
v 0.118776 1.692304 0.765963
v 0.153593 1.718834 0.765963
v 0.152058 1.702278 0.765963
v 0.154093 1.750737 0.765963
v 0.067572 1.809752 0.765963
v 0.000000 1.809835 0.765963
v 0.067572 1.691721 0.765963
v 0.000000 1.691637 0.765963
v 0.149316 1.804891 0.771581
v 0.149316 1.696582 0.771581
v -0.199745 1.687609 0.719000
v -0.198434 1.657440 0.719000
v -0.196759 1.649138 0.718271
v -0.196759 1.649138 0.718271
v -0.188334 1.647395 0.719000
v -0.157767 1.646068 0.719000
v -0.157767 1.855402 0.719000
v -0.188334 1.854077 0.719000
v -0.196759 1.852335 0.718271
v -0.196759 1.852335 0.718271
v -0.198434 1.844033 0.719000
v -0.199745 1.813863 0.719000
v -0.118776 1.809169 0.777199
v -0.142583 1.807634 0.777199
v -0.149316 1.804891 0.777199
v -0.149316 1.804891 0.777199
v -0.152058 1.799195 0.777199
v -0.153593 1.782639 0.777199
v -0.149316 1.696581 0.777199
v -0.149316 1.696581 0.777199
v -0.142583 1.693839 0.777199
v -0.118776 1.692304 0.777199
v -0.153593 1.718834 0.777199
v -0.152058 1.702278 0.777199
v -0.192348 1.847924 0.758688
v -0.194793 1.850369 0.749412
v -0.194793 1.651104 0.749413
v -0.192348 1.653549 0.758688
v -0.195789 1.650108 0.735279
v -0.195789 1.851364 0.735279
v -0.200198 1.750736 0.719000
v -0.154093 1.750736 0.777199
v -0.090030 1.855943 0.719000
v -0.067572 1.809752 0.777199
v -0.090030 1.645523 0.719000
v -0.067572 1.691721 0.777199
v -0.118776 1.809169 0.765963
v -0.142583 1.807634 0.765963
v -0.149316 1.804892 0.765963
v -0.149316 1.804892 0.765963
v -0.152058 1.799195 0.765963
v -0.153593 1.782639 0.765963
v -0.149316 1.696581 0.765963
v -0.149316 1.696581 0.765963
v -0.142583 1.693839 0.765963
v -0.118776 1.692304 0.765963
v -0.153593 1.718834 0.765963
v -0.152058 1.702278 0.765963
v -0.154093 1.750736 0.765963
v -0.067572 1.809752 0.765963
v -0.067572 1.691720 0.765963
v -0.149316 1.804891 0.771581
v -0.149316 1.696581 0.771581
vt 0.197726 0.998347
vt 0.197726 0.779954
vt 0.221380 0.783296
vt 0.221380 0.999050
vt 0.197726 0.615724
vt 0.221380 0.621003
vt 0.237756 0.628130
vt 0.237756 0.787806
vt 0.237756 1.000000
vt 0.029562 0.499880
vt 0.014882 0.423914
vt 0.015164 0.259529
vt 0.028183 0.259529
vt 0.001623 0.414812
vt 0.000406 0.259529
vt 0.001623 0.104246
vt 0.014882 0.095145
vt 0.029562 0.019178
vt 0.998674 0.444194
vt 0.802168 0.443991
vt 0.815880 0.417702
vt 0.999448 0.417906
vt 0.653790 0.442569
vt 0.677048 0.416271
vt 0.701684 0.388066
vt 0.830288 0.389502
vt 1.000000 0.389707
vt 0.266206 0.519058
vt 0.266206 0.683993
vt 0.251981 0.683993
vt 0.251981 0.519058
vt 0.266206 0.809142
vt 0.251981 0.809142
vt 0.237756 0.809142
vt 0.237756 0.683993
vt 0.237756 0.519058
vt 0.996161 0.488493
vt 0.777759 0.488293
vt 0.789615 0.467097
vt 0.997529 0.467299
vt 0.613244 0.486892
vt 0.632828 0.465684
vt 0.808203 0.883384
vt 0.808354 0.738557
vt 0.825530 0.738557
vt 0.825379 0.888363
vt 0.808203 0.593729
vt 0.825379 0.588750
vt 0.849538 0.585062
vt 0.849688 0.738557
vt 0.849538 0.892051
vt 0.557297 0.129223
vt 0.556053 0.244246
vt 0.531328 0.244246
vt 0.532564 0.113693
vt 0.557297 0.359269
vt 0.532564 0.374799
vt 0.509555 0.389074
vt 0.508330 0.244246
vt 0.509555 0.099419
vt 0.614239 0.165725
vt 0.612983 0.244246
vt 0.583655 0.244246
vt 0.584906 0.146846
vt 0.614239 0.322768
vt 0.584906 0.341646
vt 0.118878 0.998017
vt 0.118878 0.778338
vt 0.161941 0.778561
vt 0.161941 0.998058
vt 0.118878 0.613171
vt 0.161941 0.613523
vt 0.928114 0.583274
vt 0.928263 0.738557
vt 0.885484 0.738557
vt 0.885335 0.583523
vt 0.928114 0.893840
vt 0.885335 0.893590
vt 0.005071 0.029882
vt 0.013519 0.032230
vt 0.009737 0.009465
vt 0.020207 0.014523
vt 0.030890 0.004930
vt 0.036581 0.009721
vt 0.108440 0.001578
vt 0.102112 0.009650
vt 0.108440 0.517480
vt 0.030891 0.514128
vt 0.036581 0.509322
vt 0.102112 0.509310
vt 0.009737 0.509592
vt 0.020207 0.504535
vt 0.005072 0.489175
vt 0.013519 0.486828
vt 0.653790 0.045924
vt 0.677048 0.072221
vt 0.613072 0.075983
vt 0.585919 0.049666
vt 0.701684 0.100427
vt 0.641891 0.104205
vt 0.624982 0.110955
vt 0.595602 0.082703
vt 0.567937 0.056350
vt 0.588744 0.097865
vt 0.561115 0.072565
vt 0.618094 0.124976
vt 0.613072 0.412510
vt 0.641890 0.384288
vt 0.585919 0.438827
vt 0.567937 0.432142
vt 0.595602 0.405789
vt 0.624981 0.377538
vt 0.588744 0.390628
vt 0.618094 0.363517
vt 0.561115 0.415927
vt 0.613245 0.001601
vt 0.632828 0.022808
vt 0.561542 0.026524
vt 0.538831 0.005287
vt 0.543129 0.033162
vt 0.520037 0.011872
vt 0.536355 0.050285
vt 0.513317 0.029816
vt 0.561542 0.461969
vt 0.538830 0.483206
vt 0.520036 0.476620
vt 0.543129 0.455330
vt 0.536355 0.438207
vt 0.513316 0.458677
vt 0.078848 0.903334
vt 0.102502 0.898055
vt 0.102502 0.971245
vt 0.078848 0.977294
vt 0.118878 0.890928
vt 0.118878 0.963075
vt 0.118878 0.982704
vt 0.102502 0.990973
vt 0.078848 0.997090
vt 0.848539 0.986024
vt 0.824375 0.980569
vt 0.824952 0.960392
vt 0.849113 0.965665
vt 0.807193 0.973195
vt 0.807774 0.953270
vt 0.221380 0.547813
vt 0.237756 0.555983
vt 0.197726 0.541764
vt 0.197726 0.521968
vt 0.221380 0.528085
vt 0.237756 0.536354
vt 0.807193 0.503918
vt 0.824375 0.496544
vt 0.824952 0.516721
vt 0.807774 0.523843
vt 0.848539 0.491088
vt 0.849113 0.511448
vt 0.884911 0.509255
vt 0.927691 0.508910
vt 0.884338 0.488831
vt 0.927119 0.488493
vt 0.118878 0.519058
vt 0.161941 0.519437
vt 0.161941 0.539251
vt 0.118878 0.538858
vt 0.884911 0.967858
vt 0.927691 0.968203
vt 0.927119 0.988619
vt 0.884338 0.988281
vt 0.043063 0.999621
vt 0.043063 0.979807
vt 0.000000 1.000000
vt 0.000000 0.980200
vt 0.000000 0.905887
vt 0.043063 0.905534
vt 0.271974 0.016664
vt 0.272653 0.022268
vt 0.037058 0.023162
vt 0.507921 0.015476
vt 0.507921 0.021505
vt 0.507921 0.026744
vt 0.275680 0.026744
vt 0.043439 0.026744
vt 0.078848 0.739104
vt 0.102502 0.735762
vt 0.078848 0.520711
vt 0.102502 0.520008
vt 0.118878 0.519058
vt 0.118878 0.731252
vt 0.777759 0.000200
vt 0.789616 0.021396
vt 0.996161 0.000000
vt 0.997529 0.021195
vt 0.998675 0.044299
vt 0.802168 0.044502
vt 0.815880 0.070792
vt 0.999449 0.070587
vt 1.000000 0.098786
vt 0.830288 0.098991
vt 0.000000 0.740720
vt 0.043063 0.740497
vt 0.000000 0.521041
vt 0.043064 0.521000
vt 0.507921 0.492314
vt 0.507921 0.496876
vt 0.272653 0.496452
vt 0.275680 0.492314
vt 0.507921 0.502597
vt 0.271974 0.501899
vt 0.037058 0.495896
vt 0.043439 0.492314
vt 0.807193 0.831767
vt 0.802128 0.843558
vt 0.657557 0.760182
vt 0.807193 0.660130
vt 0.797063 0.855350
vt 0.784834 0.860234
vt 0.772605 0.865119
vt 0.657557 0.865119
vt 0.542508 0.865119
vt 0.530280 0.860234
vt 0.518052 0.855350
vt 0.512986 0.843559
vt 0.507921 0.831767
vt 0.507921 0.660130
vt 0.507921 0.488494
vt 0.657557 0.488494
vt 0.807193 0.488493
vt 0.266206 0.733192
vt 0.266206 0.654671
vt 0.280431 0.654671
vt 0.280431 0.733192
vt 0.266206 0.576149
vt 0.280431 0.576149
vt 0.294656 0.576149
vt 0.294656 0.654671
vt 0.294656 0.733192
vt 0.507921 0.519058
vt 0.507921 0.538114
vt 0.493696 0.538114
vt 0.493696 0.519058
vt 0.507921 0.596956
vt 0.493696 0.596956
vt 0.479471 0.596956
vt 0.479471 0.538114
vt 0.479471 0.519058
vt 0.266206 0.790284
vt 0.266206 0.774232
vt 0.280431 0.774232
vt 0.280431 0.790284
vt 0.294656 0.774232
vt 0.294657 0.790284
vt 0.507921 0.722106
vt 0.493696 0.722105
vt 0.507921 0.887040
vt 0.493696 0.887040
vt 0.479471 0.887040
vt 0.479471 0.722106
vt 0.266206 0.867984
vt 0.251981 0.867984
vt 0.266206 0.887040
vt 0.251981 0.887040
vt 0.237756 0.887040
vt 0.237756 0.867984
vt 0.266206 0.535110
vt 0.280431 0.535110
vt 0.266206 0.519058
vt 0.280431 0.519058
vt 0.294656 0.519058
vt 0.294656 0.535110
vt 0.278071 0.509806
vt 0.507921 0.510248
vt 0.507921 0.519058
vt 0.279982 0.518861
vt 0.036923 0.259529
vt 0.043439 0.259529
vt 0.278071 0.008903
vt 0.507921 0.008133
vt 0.279982 0.000197
vt 0.507921 0.000000
vt 0.221380 0.783296
vt 0.197726 0.779954
vt 0.237756 0.787806
vt 0.237756 0.628130
vt 0.221380 0.621003
vt 0.197726 0.615724
vt 0.029562 0.499880
vt 0.028183 0.259529
vt 0.015164 0.259529
vt 0.014882 0.423914
vt 0.029562 0.019178
vt 0.014882 0.095145
vt 0.001623 0.104246
vt 0.000406 0.259529
vt 0.001623 0.414812
vt 0.815880 0.417702
vt 0.802168 0.443991
vt 0.830288 0.389502
vt 0.701684 0.388066
vt 0.677048 0.416271
vt 0.653790 0.442569
vt 0.251981 0.683993
vt 0.266206 0.683993
vt 0.237756 0.683993
vt 0.237756 0.809142
vt 0.251981 0.809142
vt 0.266206 0.809142
vt 0.789615 0.467097
vt 0.777759 0.488293
vt 0.632828 0.465684
vt 0.613244 0.486892
vt 0.808203 0.883384
vt 0.825379 0.888363
vt 0.825530 0.738557
vt 0.808354 0.738557
vt 0.849538 0.892052
vt 0.849688 0.738557
vt 0.849538 0.585062
vt 0.825379 0.588750
vt 0.808203 0.593729
vt 0.557297 0.129223
vt 0.532564 0.113693
vt 0.531328 0.244246
vt 0.556053 0.244246
vt 0.509555 0.099419
vt 0.508330 0.244246
vt 0.509555 0.389074
vt 0.532564 0.374799
vt 0.557297 0.359269
vt 0.614239 0.165725
vt 0.584906 0.146846
vt 0.583655 0.244246
vt 0.612983 0.244246
vt 0.584905 0.341646
vt 0.614239 0.322768
vt 0.161941 0.778561
vt 0.118878 0.778338
vt 0.161941 0.613523
vt 0.118878 0.613171
vt 0.928114 0.583274
vt 0.885335 0.583523
vt 0.885484 0.738557
vt 0.928263 0.738557
vt 0.885335 0.893590
vt 0.928114 0.893840
vt 0.013519 0.032230
vt 0.005071 0.029882
vt 0.020207 0.014523
vt 0.009737 0.009465
vt 0.036581 0.009721
vt 0.030890 0.004930
vt 0.102112 0.009650
vt 0.108440 0.001578
vt 0.108440 0.517480
vt 0.102112 0.509310
vt 0.036581 0.509322
vt 0.030891 0.514128
vt 0.020207 0.504535
vt 0.009737 0.509592
vt 0.013519 0.486828
vt 0.005072 0.489175
vt 0.653790 0.045924
vt 0.585919 0.049666
vt 0.613072 0.075983
vt 0.677048 0.072221
vt 0.567937 0.056350
vt 0.595602 0.082703
vt 0.624982 0.110955
vt 0.641891 0.104205
vt 0.701684 0.100427
vt 0.561115 0.072565
vt 0.588744 0.097865
vt 0.618094 0.124976
vt 0.641890 0.384288
vt 0.613072 0.412510
vt 0.624981 0.377538
vt 0.595602 0.405789
vt 0.567936 0.432142
vt 0.585919 0.438827
vt 0.618094 0.363517
vt 0.588744 0.390628
vt 0.561115 0.415927
vt 0.613245 0.001601
vt 0.538831 0.005287
vt 0.561542 0.026524
vt 0.632828 0.022808
vt 0.520037 0.011872
vt 0.543129 0.033162
vt 0.513317 0.029816
vt 0.536355 0.050285
vt 0.561542 0.461969
vt 0.543129 0.455330
vt 0.520036 0.476620
vt 0.538830 0.483206
vt 0.536355 0.438207
vt 0.513316 0.458677
vt 0.078848 0.903334
vt 0.078848 0.977294
vt 0.102502 0.971245
vt 0.102502 0.898055
vt 0.078848 0.997090
vt 0.102502 0.990973
vt 0.118878 0.982704
vt 0.118878 0.963075
vt 0.118878 0.890928
vt 0.848539 0.986024
vt 0.849113 0.965665
vt 0.824952 0.960392
vt 0.824375 0.980569
vt 0.807774 0.953270
vt 0.807193 0.973195
vt 0.237756 0.555983
vt 0.221380 0.547813
vt 0.237756 0.536354
vt 0.221380 0.528085
vt 0.197726 0.521968
vt 0.197726 0.541764
vt 0.807193 0.503918
vt 0.807774 0.523843
vt 0.824952 0.516721
vt 0.824375 0.496544
vt 0.849113 0.511448
vt 0.848539 0.491088
vt 0.927691 0.508910
vt 0.884911 0.509255
vt 0.927119 0.488493
vt 0.884338 0.488831
vt 0.118878 0.519058
vt 0.118878 0.538858
vt 0.161941 0.539251
vt 0.161941 0.519437
vt 0.884911 0.967858
vt 0.884338 0.988281
vt 0.927119 0.988619
vt 0.927691 0.968203
vt 0.043063 0.979807
vt 0.043063 0.999621
vt 0.043063 0.905534
vt 0.000000 0.905887
vt 0.000000 0.980200
vt 0.000000 1.000000
vt 0.037058 0.023162
vt 0.272653 0.022268
vt 0.271974 0.016664
vt 0.043439 0.026744
vt 0.275680 0.026744
vt 0.102502 0.735762
vt 0.078848 0.739104
vt 0.118878 0.731252
vt 0.789616 0.021396
vt 0.777759 0.000200
vt 0.802168 0.044502
vt 0.815880 0.070792
vt 0.830288 0.098991
vt 0.043063 0.740497
vt 0.000000 0.740720
vt 0.275680 0.492314
vt 0.272653 0.496452
vt 0.043439 0.492314
vt 0.037058 0.495896
vt 0.271974 0.501899
vt 0.807193 0.831767
vt 0.807193 0.660130
vt 0.657557 0.760182
vt 0.802128 0.843558
vt 0.507921 0.660130
vt 0.507921 0.831767
vt 0.512986 0.843559
vt 0.518052 0.855350
vt 0.530280 0.860235
vt 0.542508 0.865119
vt 0.657557 0.865119
vt 0.772605 0.865119
vt 0.784834 0.860234
vt 0.797063 0.855350
vt 0.266206 0.733192
vt 0.280431 0.733192
vt 0.280431 0.654671
vt 0.266206 0.654671
vt 0.294656 0.733192
vt 0.294656 0.654671
vt 0.294656 0.576149
vt 0.280431 0.576149
vt 0.266206 0.576149
vt 0.507921 0.519058
vt 0.493696 0.519058
vt 0.493696 0.538114
vt 0.507921 0.538114
vt 0.479471 0.519058
vt 0.479471 0.538114
vt 0.479471 0.596956
vt 0.493696 0.596956
vt 0.507921 0.596956
vt 0.266206 0.790284
vt 0.280431 0.790284
vt 0.280431 0.774232
vt 0.266206 0.774232
vt 0.294657 0.790284
vt 0.294656 0.774232
vt 0.493696 0.722106
vt 0.507921 0.722106
vt 0.479471 0.722106
vt 0.251981 0.867984
vt 0.266206 0.867984
vt 0.237756 0.867984
vt 0.237756 0.887040
vt 0.251981 0.887040
vt 0.266206 0.887040
vt 0.280431 0.535110
vt 0.266206 0.535110
vt 0.294656 0.535110
vt 0.294656 0.519058
vt 0.280431 0.519058
vt 0.266206 0.519058
vt 0.278071 0.509806
vt 0.279982 0.518861
vt 0.036923 0.259529
vt 0.043439 0.259529
vt 0.278071 0.008903
vt 0.279982 0.000197
vn 0.0000 -0.9872 0.1591
vn 0.0047 -0.9872 0.1596
vn 0.0044 -0.8991 0.4376
vn 0.0000 -0.8996 0.4367
vn 0.0291 -0.9861 0.1634
vn 0.0271 -0.8950 0.4451
vn 0.0200 -0.6785 0.7343
vn 0.0033 -0.6860 0.7275
vn 0.0000 -0.6869 0.7267
vn 0.0000 0.0000 -1.0000
vn 0.0818 0.0009 -0.9966
vn 0.0682 0.0000 -0.9977
vn 0.1479 0.0009 -0.9890
vn 0.1363 0.0000 -0.9907
vn 0.1479 -0.0009 -0.9890
vn 0.0818 -0.0009 -0.9966
vn 0.0000 -0.2957 0.9553
vn 0.0015 -0.2951 0.9554
vn 0.0010 -0.1841 0.9829
vn 0.0000 -0.1846 0.9828
vn 0.0088 -0.2897 0.9571
vn 0.0059 -0.1802 0.9836
vn 0.0037 -0.1454 0.9893
vn 0.0007 -0.1481 0.9890
vn 0.0000 -0.1484 0.9889
vn 0.0000 1.0000 -0.0000
vn -0.0063 1.0000 0.0000
vn -0.0379 0.9993 0.0000
vn 0.0023 -0.4653 0.8851
vn 0.0000 -0.4662 0.8846
vn 0.0135 -0.4579 0.8889
vn 0.6795 0.0210 0.7334
vn 0.6863 0.0000 0.7273
vn 0.8993 0.0000 0.4373
vn 0.8956 0.0275 0.4440
vn 0.6795 -0.0210 0.7334
vn 0.8956 -0.0275 0.4440
vn 0.9862 -0.0291 0.1628
vn 0.9872 0.0000 0.1595
vn 0.9862 0.0291 0.1628
vn 0.2899 0.0103 0.9570
vn 0.2952 0.0000 0.9554
vn 0.4655 0.0000 0.8850
vn 0.4585 0.0149 0.8885
vn 0.2899 -0.0103 0.9570
vn 0.4585 -0.0149 0.8885
vn 0.1449 0.0053 0.9894
vn 0.1478 0.0000 0.9890
vn 0.1841 0.0000 0.9829
vn 0.1799 0.0076 0.9836
vn 0.1449 -0.0053 0.9894
vn 0.1799 -0.0076 0.9836
vn 0.0000 -1.0000 -0.0013
vn 0.0045 -1.0000 -0.0010
vn 0.0046 -0.9995 0.0316
vn 0.0000 -0.9995 0.0313
vn 0.0269 -0.9996 0.0017
vn 0.0279 -0.9990 0.0339
vn 0.9996 -0.0268 -0.0032
vn 1.0000 0.0000 -0.0062
vn 0.9996 0.0000 0.0290
vn 0.9991 -0.0277 0.0313
vn 0.9996 0.0268 -0.0032
vn 0.9991 0.0277 0.0313
vn 0.1375 0.0084 -0.9904
vn 0.0804 0.0037 -0.9967
vn 0.0701 -0.0520 -0.9962
vn 0.0279 -0.0666 -0.9974
vn 0.0004 -0.2114 -0.9774
vn 0.0023 -0.1390 -0.9903
vn 0.0028 -0.2353 -0.9719
vn 0.0026 -0.1323 -0.9912
vn 0.0026 0.2311 -0.9729
vn 0.0003 0.2108 -0.9775
vn 0.0022 0.1380 -0.9904
vn 0.0025 0.1306 -0.9914
vn 0.0700 0.0520 -0.9962
vn 0.0278 0.0666 -0.9974
vn 0.1375 -0.0084 -0.9904
vn 0.0804 -0.0037 -0.9967
vn 0.0088 0.2897 0.9571
vn 0.0059 0.1802 0.9836
vn 0.0306 0.1590 0.9868
vn 0.0477 0.2596 0.9645
vn 0.0037 0.1454 0.9893
vn 0.0203 0.1291 0.9914
vn 0.0722 0.0775 0.9944
vn 0.0956 0.1003 0.9903
vn 0.1594 0.1645 0.9734
vn 0.1566 0.0345 0.9871
vn 0.2575 0.0519 0.9648
vn 0.1260 0.0245 0.9917
vn 0.0306 -0.1590 0.9868
vn 0.0203 -0.1291 0.9914
vn 0.0477 -0.2596 0.9645
vn 0.1594 -0.1645 0.9734
vn 0.0956 -0.1003 0.9903
vn 0.0722 -0.0775 0.9944
vn 0.1566 -0.0345 0.9871
vn 0.1260 -0.0245 0.9917
vn 0.2575 -0.0519 0.9648
vn 0.0200 0.6785 0.7343
vn 0.0135 0.4579 0.8889
vn 0.0761 0.4140 0.9070
vn 0.1185 0.6287 0.7685
vn 0.2598 0.2647 0.9286
vn 0.4147 0.4190 0.8078
vn 0.4125 0.0803 0.9073
vn 0.6280 0.1225 0.7685
vn 0.0761 -0.4140 0.9070
vn 0.1185 -0.6287 0.7685
vn 0.4147 -0.4190 0.8078
vn 0.2598 -0.2647 0.9286
vn 0.4126 -0.0803 0.9073
vn 0.6280 -0.1225 0.7685
vn 0.0291 0.9861 0.1634
vn 0.0271 0.8950 0.4451
vn 0.1725 0.8568 0.4859
vn 0.1929 0.9633 0.1865
vn 0.2909 0.8224 0.4888
vn 0.3224 0.9261 0.1959
vn 0.9249 0.3258 0.1958
vn 0.8205 0.2956 0.4893
vn 0.8564 0.1757 0.4854
vn 0.9629 0.1951 0.1862
vn 0.1725 -0.8568 0.4859
vn 0.1929 -0.9633 0.1865
vn 0.3224 -0.9261 0.1959
vn 0.2909 -0.8224 0.4888
vn 0.8205 -0.2956 0.4893
vn 0.8564 -0.1757 0.4854
vn 0.9249 -0.3258 0.1958
vn 0.9629 -0.1951 0.1862
vn 0.9835 -0.1741 0.0485
vn 0.9872 -0.1581 0.0203
vn 0.9539 -0.2936 0.0622
vn 0.9646 -0.2608 0.0392
vn 0.2619 -0.9642 0.0407
vn 0.2928 -0.9541 0.0630
vn 0.1735 -0.9836 0.0502
vn 0.1581 -0.9871 0.0232
vn 0.9835 0.1741 0.0485
vn 0.9872 0.1581 0.0203
vn 0.9646 0.2608 0.0392
vn 0.9539 0.2936 0.0622
vn 0.2928 0.9541 0.0630
vn 0.1735 0.9836 0.0501
vn 0.2619 0.9642 0.0408
vn 0.1581 0.9871 0.0232
vn 0.0269 0.9996 0.0016
vn 0.0278 0.9990 0.0338
vn 0.0047 0.9872 0.1596
vn 0.0044 0.8991 0.4376
vn 0.0000 0.9872 0.1591
vn 0.0000 0.8996 0.4367
vn 0.0000 0.6869 0.7267
vn 0.0033 0.6860 0.7275
vn 0.0023 0.4653 0.8851
vn 0.0000 0.4662 0.8846
vn 0.0000 0.2957 0.9553
vn 0.0015 0.2951 0.9554
vn 0.0010 0.1841 0.9829
vn 0.0000 0.1846 0.9828
vn 0.0000 0.1484 0.9889
vn 0.0007 0.1481 0.9890
vn 0.0045 1.0000 -0.0013
vn 0.0046 0.9995 0.0314
vn 0.0000 1.0000 -0.0016
vn 0.0000 0.9995 0.0311
vn 0.0000 0.0000 1.0000
vn -0.9985 0.0540 0.0000
vn -1.0000 0.0000 0.0000
vn -0.9985 -0.0540 0.0000
vn -0.3772 -0.9261 0.0000
vn -0.2237 -0.9746 0.0000
vn -0.0379 -0.9993 0.0000
vn -0.9010 0.4338 0.0000
vn -0.9636 0.2673 0.0000
vn -0.9010 0.4337 0.0000
vn -0.0063 -1.0000 0.0000
vn 0.0000 -1.0000 0.0000
vn -0.2237 0.9746 0.0000
vn -0.3772 0.9261 0.0000
vn -0.9636 -0.2673 0.0000
vn -0.9010 -0.4337 0.0000
vn 0.0003 0.1046 -0.9945
vn 0.0000 0.1016 -0.9948
vn 0.0000 0.2020 -0.9794
vn 0.0006 0.2066 -0.9784
vn 0.0004 -0.1080 -0.9941
vn 0.0000 -0.1060 -0.9944
vn 0.0007 -0.2136 -0.9769
vn 0.0000 -0.2106 -0.9776
vn -0.0044 -0.8991 0.4376
vn -0.0047 -0.9872 0.1596
vn -0.0033 -0.6860 0.7275
vn -0.0200 -0.6785 0.7343
vn -0.0271 -0.8950 0.4451
vn -0.0291 -0.9861 0.1634
vn -0.0682 0.0000 -0.9977
vn -0.0818 0.0009 -0.9966
vn -0.0818 -0.0009 -0.9966
vn -0.1479 -0.0009 -0.9890
vn -0.1363 0.0000 -0.9907
vn -0.1479 0.0009 -0.9890
vn -0.0010 -0.1841 0.9829
vn -0.0015 -0.2951 0.9554
vn -0.0007 -0.1481 0.9890
vn -0.0037 -0.1454 0.9893
vn -0.0059 -0.1802 0.9836
vn -0.0088 -0.2897 0.9571
vn 0.0063 1.0000 0.0000
vn 0.0379 0.9993 0.0000
vn -0.0023 -0.4653 0.8851
vn -0.0135 -0.4579 0.8889
vn -0.6794 0.0210 0.7334
vn -0.8956 0.0275 0.4440
vn -0.8993 0.0000 0.4373
vn -0.6863 0.0000 0.7273
vn -0.9862 0.0291 0.1628
vn -0.9872 0.0000 0.1595
vn -0.9862 -0.0291 0.1628
vn -0.8956 -0.0275 0.4440
vn -0.6795 -0.0210 0.7334
vn -0.2899 0.0103 0.9570
vn -0.4585 0.0149 0.8885
vn -0.4655 0.0000 0.8850
vn -0.2952 0.0000 0.9554
vn -0.4585 -0.0149 0.8885
vn -0.2899 -0.0103 0.9570
vn -0.1449 0.0053 0.9894
vn -0.1799 0.0076 0.9836
vn -0.1841 0.0000 0.9829
vn -0.1478 0.0000 0.9890
vn -0.1799 -0.0076 0.9836
vn -0.1449 -0.0053 0.9894
vn -0.0046 -0.9995 0.0316
vn -0.0045 -1.0000 -0.0010
vn -0.0279 -0.9990 0.0339
vn -0.0269 -0.9996 0.0017
vn -0.9996 -0.0268 -0.0032
vn -0.9991 -0.0277 0.0313
vn -0.9996 0.0000 0.0290
vn -1.0000 0.0000 -0.0062
vn -0.9991 0.0277 0.0313
vn -0.9996 0.0268 -0.0032
vn -0.0804 0.0037 -0.9967
vn -0.1375 0.0084 -0.9904
vn -0.0279 -0.0666 -0.9974
vn -0.0701 -0.0520 -0.9962
vn -0.0023 -0.1389 -0.9903
vn -0.0004 -0.2114 -0.9774
vn -0.0026 -0.1323 -0.9912
vn -0.0028 -0.2353 -0.9719
vn -0.0026 0.2311 -0.9729
vn -0.0025 0.1306 -0.9914
vn -0.0022 0.1380 -0.9904
vn -0.0003 0.2108 -0.9775
vn -0.0278 0.0666 -0.9974
vn -0.0700 0.0520 -0.9962
vn -0.0804 -0.0037 -0.9967
vn -0.1375 -0.0084 -0.9904
vn -0.0088 0.2897 0.9571
vn -0.0477 0.2596 0.9645
vn -0.0306 0.1590 0.9868
vn -0.0059 0.1802 0.9836
vn -0.1594 0.1645 0.9734
vn -0.0956 0.1003 0.9903
vn -0.0722 0.0775 0.9944
vn -0.0203 0.1291 0.9914
vn -0.0037 0.1454 0.9893
vn -0.2575 0.0519 0.9648
vn -0.1566 0.0345 0.9871
vn -0.1260 0.0245 0.9917
vn -0.0203 -0.1291 0.9914
vn -0.0306 -0.1590 0.9868
vn -0.0722 -0.0775 0.9944
vn -0.0956 -0.1003 0.9903
vn -0.1594 -0.1645 0.9734
vn -0.0477 -0.2596 0.9645
vn -0.1260 -0.0245 0.9917
vn -0.1566 -0.0345 0.9871
vn -0.2575 -0.0519 0.9648
vn -0.0200 0.6785 0.7343
vn -0.1185 0.6287 0.7685
vn -0.0761 0.4140 0.9070
vn -0.0135 0.4579 0.8889
vn -0.4147 0.4190 0.8078
vn -0.2598 0.2647 0.9286
vn -0.6280 0.1225 0.7685
vn -0.4126 0.0803 0.9073
vn -0.0761 -0.4141 0.9070
vn -0.2598 -0.2647 0.9286
vn -0.4147 -0.4190 0.8078
vn -0.1185 -0.6287 0.7685
vn -0.4126 -0.0803 0.9073
vn -0.6280 -0.1225 0.7685
vn -0.0291 0.9861 0.1634
vn -0.1929 0.9633 0.1865
vn -0.1725 0.8568 0.4859
vn -0.0271 0.8950 0.4451
vn -0.3224 0.9261 0.1959
vn -0.2909 0.8224 0.4888
vn -0.9249 0.3258 0.1958
vn -0.9629 0.1951 0.1862
vn -0.8564 0.1757 0.4854
vn -0.8205 0.2956 0.4892
vn -0.1725 -0.8568 0.4859
vn -0.2909 -0.8224 0.4888
vn -0.3224 -0.9261 0.1959
vn -0.1929 -0.9633 0.1865
vn -0.8564 -0.1757 0.4854
vn -0.8205 -0.2956 0.4893
vn -0.9629 -0.1951 0.1862
vn -0.9249 -0.3258 0.1958
vn -0.9872 -0.1581 0.0203
vn -0.9835 -0.1741 0.0485
vn -0.9646 -0.2608 0.0392
vn -0.9539 -0.2936 0.0622
vn -0.2619 -0.9642 0.0408
vn -0.1581 -0.9871 0.0232
vn -0.1735 -0.9835 0.0502
vn -0.2928 -0.9541 0.0630
vn -0.9835 0.1741 0.0485
vn -0.9539 0.2936 0.0622
vn -0.9646 0.2608 0.0392
vn -0.9872 0.1581 0.0203
vn -0.1735 0.9836 0.0501
vn -0.2927 0.9541 0.0630
vn -0.0278 0.9990 0.0338
vn -0.0269 0.9996 0.0016
vn -0.1581 0.9871 0.0232
vn -0.2619 0.9642 0.0408
vn -0.0044 0.8991 0.4376
vn -0.0047 0.9872 0.1596
vn -0.0033 0.6860 0.7275
vn -0.0023 0.4653 0.8851
vn -0.0015 0.2951 0.9554
vn -0.0010 0.1841 0.9829
vn -0.0007 0.1481 0.9890
vn -0.0046 0.9995 0.0314
vn -0.0045 1.0000 -0.0013
vn 0.9985 0.0540 0.0000
vn 1.0000 0.0000 0.0000
vn 0.9985 -0.0540 0.0000
vn 0.3772 -0.9261 0.0000
vn 0.2237 -0.9746 0.0000
vn 0.0379 -0.9993 0.0000
vn 0.9010 0.4338 0.0000
vn 0.9010 0.4337 0.0000
vn 0.9636 0.2673 0.0000
vn 0.0063 -1.0000 0.0000
vn 0.2237 0.9746 0.0000
vn 0.3772 0.9261 0.0000
vn 0.9636 -0.2673 0.0000
vn 0.9010 -0.4337 0.0000
vn -0.0003 0.1046 -0.9945
vn -0.0006 0.2066 -0.9784
vn -0.0004 -0.1080 -0.9941
vn -0.0007 -0.2136 -0.9769
usemtl None
s 1
f 81/1/1 167/2/2 284/3/3 173/4/4
f 167/2/2 14/5/5 138/6/6 284/3/3
f 284/3/3 138/6/6 20/7/7 169/8/8
f 173/4/4 284/3/3 169/8/8 84/9/9
f 9/10/10 107/11/11 285/12/12 195/13/10
f 107/11/11 387/14/13 406/15/14 285/12/12
f 285/12/12 406/15/14 376/16/15 99/17/16
f 195/13/10 285/12/12 99/17/16 5/18/10
f 82/19/17 154/20/18 286/21/19 172/22/20
f 154/20/18 17/23/21 117/24/22 286/21/19
f 286/21/19 117/24/22 397/25/23 414/26/24
f 172/22/20 286/21/19 414/26/24 415/27/25
f 83/28/26 168/29/27 287/30/27 186/31/26
f 168/29/27 11/32/28 174/33/28 287/30/27
f 287/30/27 174/33/28 425/34/28 431/35/27
f 186/31/26 287/30/27 431/35/27 432/36/26
f 84/37/9 169/38/8 288/39/29 171/40/30
f 169/38/8 20/41/7 128/42/31 288/39/29
f 288/39/29 128/42/31 17/23/21 154/20/18
f 171/40/30 288/39/29 154/20/18 82/19/17
f 32/43/32 158/44/33 289/45/34 137/46/35
f 158/44/33 21/47/36 142/48/37 289/45/34
f 289/45/34 142/48/37 15/49/38 153/50/39
f 137/46/35 289/45/34 153/50/39 26/51/40
f 29/52/41 157/53/42 290/54/43 127/55/44
f 157/53/42 18/56/45 132/57/46 290/54/43
f 290/54/43 132/57/46 21/58/36 158/59/33
f 127/55/44 290/54/43 158/59/33 32/60/32
f 393/61/47 407/62/48 291/63/49 115/64/50
f 407/62/48 398/65/51 122/66/52 291/63/49
f 291/63/49 122/66/52 18/56/45 157/53/42
f 115/64/50 291/63/49 157/53/42 29/52/41
f 413/67/53 412/68/54 292/69/55 170/70/56
f 412/68/54 4/71/57 145/72/58 292/69/55
f 292/69/55 145/72/58 14/5/5 167/2/2
f 170/70/56 292/69/55 167/2/2 81/1/1
f 3/73/59 152/74/60 293/75/61 143/76/62
f 152/74/60 8/77/63 146/78/64 293/75/61
f 293/75/61 146/78/64 26/51/40 153/50/39
f 143/76/62 293/75/61 153/50/39 15/49/38
f 376/16/15 377/79/65 294/80/66 99/17/16
f 378/81/67 103/82/68 294/80/66 377/79/65
f 5/18/10 99/17/16 294/80/66 103/82/68
f 378/81/67 380/83/69 295/84/70 103/82/68
f 381/85/71 102/86/72 295/84/70 380/83/69
f 5/18/10 103/82/68 295/84/70 102/86/72
f 382/87/73 383/88/74 296/89/75 104/90/76
f 384/91/77 108/92/78 296/89/75 383/88/74
f 9/10/10 104/90/76 296/89/75 108/92/78
f 384/91/77 386/93/79 297/94/80 108/92/78
f 387/14/13 107/11/11 297/94/80 386/93/79
f 9/10/10 108/92/78 297/94/80 107/11/11
f 30/95/81 110/96/82 298/97/83 109/98/84
f 110/96/82 388/99/85 389/100/86 298/97/83
f 298/97/83 389/100/86 390/101/87 112/102/88
f 109/98/84 298/97/83 112/102/88 31/103/89
f 31/103/89 112/102/88 299/104/90 113/105/91
f 112/102/88 390/101/87 392/106/92 299/104/90
f 299/104/90 392/106/92 393/61/47 115/64/50
f 113/105/91 299/104/90 115/64/50 29/52/41
f 397/25/23 117/24/22 300/107/93 396/108/94
f 117/24/22 17/23/21 118/109/95 300/107/93
f 300/107/93 118/109/95 19/110/96 119/111/97
f 396/108/94 300/107/93 119/111/97 394/112/98
f 394/112/98 119/111/97 301/113/99 399/114/100
f 119/111/97 19/110/96 121/115/101 301/113/99
f 301/113/99 121/115/101 18/56/45 122/66/52
f 399/114/100 301/113/99 122/66/52 398/65/51
f 33/116/102 124/117/103 302/118/104 123/119/105
f 124/117/103 30/95/81 109/98/84 302/118/104
f 302/118/104 109/98/84 31/103/89 125/120/106
f 123/119/105 302/118/104 125/120/106 34/121/107
f 34/121/107 125/120/106 303/122/108 126/123/109
f 125/120/106 31/103/89 113/105/91 303/122/108
f 303/122/108 113/105/91 29/52/41 127/55/44
f 126/123/109 303/122/108 127/55/44 32/60/32
f 17/23/21 128/42/31 304/124/110 118/109/95
f 128/42/31 20/41/7 129/125/111 304/124/110
f 304/124/110 129/125/111 22/126/112 130/127/113
f 118/109/95 304/124/110 130/127/113 19/110/96
f 19/110/96 130/127/113 305/128/114 121/115/101
f 130/127/113 22/126/112 131/129/115 305/128/114
f 305/128/114 131/129/115 21/58/36 132/57/46
f 121/115/101 305/128/114 132/57/46 18/56/45
f 27/130/116 134/131/117 306/132/118 133/133/119
f 134/131/117 33/134/102 123/135/105 306/132/118
f 306/132/118 123/135/105 34/136/107 400/137/120
f 133/133/119 306/132/118 400/137/120 401/138/121
f 28/139/122 135/140/123 307/141/124 136/142/125
f 135/140/123 34/143/107 126/144/109 307/141/124
f 307/141/124 126/144/109 32/43/32 137/46/35
f 136/142/125 307/141/124 137/46/35 26/51/40
f 20/7/7 138/6/6 308/145/126 129/146/111
f 138/6/6 14/5/5 139/147/127 308/145/126
f 308/145/126 139/147/127 402/148/128 403/149/129
f 129/146/111 308/145/126 403/149/129 22/150/112
f 22/151/112 140/152/130 309/153/131 131/154/115
f 140/152/130 16/155/132 141/156/133 309/153/131
f 309/153/131 141/156/133 15/49/38 142/48/37
f 131/154/115 309/153/131 142/48/37 21/47/36
f 3/73/59 143/76/62 310/157/134 100/158/135
f 143/76/62 15/49/38 141/156/133 310/157/134
f 310/157/134 141/156/133 16/155/132 404/159/136
f 100/158/135 310/157/134 404/159/136 379/160/137
f 6/161/138 144/162/139 311/163/140 101/164/141
f 144/162/139 402/148/128 139/147/127 311/163/140
f 311/163/140 139/147/127 14/5/5 145/72/58
f 101/164/141 311/163/140 145/72/58 4/71/57
f 26/51/40 146/78/64 312/165/142 136/142/125
f 146/78/64 8/77/63 106/166/143 312/165/142
f 312/165/142 106/166/143 385/167/144 405/168/145
f 136/142/125 312/165/142 405/168/145 28/139/122
f 401/138/121 147/169/146 313/170/147 133/133/119
f 147/169/146 10/171/148 105/172/149 313/170/147
f 313/170/147 105/172/149 7/173/150 148/174/151
f 133/133/119 313/170/147 148/174/151 27/130/116
f 5/18/10 197/175/10 314/176/10 149/177/10
f 197/175/10 96/178/10 196/179/10 314/176/10
f 314/176/10 196/179/10 86/180/10 175/181/10
f 149/177/10 314/176/10 175/181/10 2/182/10
f 27/130/116 150/183/152 315/184/153 134/131/117
f 150/183/152 76/185/154 162/186/155 315/184/153
f 315/184/153 162/186/155 79/187/156 156/188/157
f 134/131/117 315/184/153 156/188/157 33/134/102
f 33/116/102 156/189/157 316/190/158 124/117/103
f 156/189/157 79/191/156 163/192/159 316/190/158
f 316/190/158 163/192/159 78/193/160 161/194/161
f 124/117/103 316/190/158 161/194/161 30/95/81
f 30/95/81 161/194/161 317/195/162 110/96/82
f 161/194/161 78/193/160 164/196/163 317/195/162
f 317/195/162 164/196/163 411/197/164 410/198/165
f 110/96/82 317/195/162 410/198/165 388/99/85
f 7/173/150 408/199/166 318/200/167 148/174/151
f 408/199/166 409/201/168 165/202/169 318/200/167
f 318/200/167 165/202/169 76/185/154 150/183/152
f 148/174/151 318/200/167 150/183/152 27/130/116
f 85/203/10 176/204/10 319/205/10 97/206/10
f 176/204/10 95/207/10 194/208/10 319/205/10
f 319/205/10 194/208/10 9/10/10 151/209/10
f 97/206/10 319/205/10 151/209/10 1/210/10
f 39/211/170 424/212/170 320/213/170 184/214/170
f 422/215/170 427/216/170 320/213/170 424/212/170
f 426/217/170 428/218/170 320/213/170 427/216/170
f 421/219/170 420/220/170 320/213/170 428/218/170
f 418/221/170 417/222/170 320/213/170 420/220/170
f 416/223/170 429/224/170 320/213/170 417/222/170
f 430/225/170 185/226/170 320/213/170 429/224/170
f 94/227/170 184/214/170 320/213/170 185/226/170
f 12/228/171 155/229/172 321/230/172 188/231/171
f 155/229/172 23/232/173 187/233/173 321/230/172
f 321/230/172 187/233/173 37/234/173 182/235/172
f 188/231/171 321/230/172 182/235/172 40/236/171
f 391/237/174 111/238/175 322/239/175 433/240/174
f 111/238/175 24/241/176 189/242/176 322/239/175
f 322/239/175 189/242/176 35/243/176 178/244/175
f 433/240/174 322/239/175 178/244/175 419/245/174
f 395/246/177 120/247/178 323/248/178 434/249/179
f 120/247/178 12/228/171 188/231/171 323/248/178
f 323/248/178 188/231/171 40/236/171 181/250/178
f 434/249/179 323/248/178 181/250/178 423/251/179
f 24/241/176 160/252/180 324/253/180 189/242/176
f 160/252/180 77/254/181 192/255/181 324/253/180
f 324/253/180 192/255/181 93/256/181 183/257/180
f 189/242/176 324/253/180 183/257/180 35/243/176
f 11/32/28 116/258/182 325/259/182 174/33/28
f 116/258/182 13/260/183 191/261/183 325/259/182
f 325/259/182 191/261/183 38/262/183 180/263/182
f 174/33/28 325/259/182 180/263/182 425/34/28
f 23/232/173 114/264/184 326/265/184 187/233/173
f 114/264/184 25/266/185 190/267/185 326/265/184
f 326/265/184 190/267/185 36/268/185 179/269/184
f 187/233/173 326/265/184 179/269/184 37/234/173
f 9/10/10 194/208/10 327/270/186 104/90/76
f 194/208/10 95/207/10 193/271/187 327/270/186
f 327/270/186 193/271/187 75/272/188 159/273/189
f 104/90/76 327/270/186 159/273/189 382/87/73
f 5/18/10 149/177/10 328/274/10 195/13/10
f 149/177/10 2/182/10 98/275/10 328/274/10
f 328/274/10 98/275/10 1/210/10 151/209/10
f 195/13/10 328/274/10 151/209/10 9/10/10
f 96/178/10 197/175/10 329/276/190 177/277/191
f 197/175/10 5/18/10 102/86/72 329/276/190
f 329/276/190 102/86/72 381/85/71 166/278/192
f 177/277/191 329/276/190 166/278/192 80/279/193
f 81/1/1 173/4/4 330/280/194 264/281/195
f 173/4/4 84/9/9 266/282/196 330/280/194
f 330/280/194 266/282/196 60/283/197 239/284/198
f 264/281/195 330/280/194 239/284/198 54/285/199
f 49/286/10 282/287/10 331/288/200 208/289/201
f 282/287/10 45/290/10 200/291/202 331/288/200
f 331/288/200 200/291/202 435/292/203 465/293/204
f 208/289/201 331/288/200 465/293/204 446/294/205
f 82/19/17 172/22/20 332/295/206 255/296/207
f 172/22/20 415/27/25 470/297/208 332/295/206
f 332/295/206 470/297/208 456/298/209 218/299/210
f 255/296/207 332/295/206 218/299/210 57/300/211
f 83/28/26 186/31/26 333/301/212 265/302/212
f 186/31/26 432/36/26 485/303/212 333/301/212
f 333/301/212 485/303/212 480/304/213 267/305/213
f 265/302/212 333/301/212 267/305/213 51/306/213
f 84/37/9 171/40/30 334/307/214 266/308/196
f 171/40/30 82/19/17 255/296/207 334/307/214
f 334/307/214 255/296/207 57/300/211 229/309/215
f 266/308/196 334/307/214 229/309/215 60/310/197
f 72/311/216 238/312/217 335/313/218 259/314/219
f 238/312/217 66/315/220 254/316/221 335/313/218
f 335/313/218 254/316/221 55/317/222 243/318/223
f 259/314/219 335/313/218 243/318/223 61/319/224
f 69/320/225 228/321/226 336/322/227 258/323/228
f 228/321/226 72/324/216 259/325/219 336/322/227
f 336/322/227 259/325/219 61/326/224 233/327/229
f 258/323/228 336/322/227 233/327/229 58/328/230
f 452/329/231 216/330/232 337/331/233 466/332/234
f 216/330/232 69/320/225 258/323/228 337/331/233
f 337/331/233 258/323/228 58/328/230 223/333/235
f 466/332/234 337/331/233 223/333/235 457/334/236
f 413/67/53 170/70/56 338/335/237 469/336/238
f 170/70/56 81/1/1 264/281/195 338/335/237
f 338/335/237 264/281/195 54/285/199 246/337/239
f 469/336/238 338/335/237 246/337/239 44/338/240
f 43/339/241 244/340/242 339/341/243 253/342/244
f 244/340/242 55/317/222 254/316/221 339/341/243
f 339/341/243 254/316/221 66/315/220 247/343/245
f 253/342/244 339/341/243 247/343/245 48/344/246
f 435/292/203 200/291/202 340/345/247 436/346/248
f 45/290/10 204/347/249 340/345/247 200/291/202
f 437/348/250 436/346/248 340/345/247 204/347/249
f 437/348/250 204/347/249 341/349/251 439/350/252
f 45/290/10 203/351/253 341/349/251 204/347/249
f 440/352/254 439/350/252 341/349/251 203/351/253
f 441/353/255 205/354/256 342/355/257 442/356/258
f 49/286/10 209/357/259 342/355/257 205/354/256
f 443/358/260 442/356/258 342/355/257 209/357/259
f 443/358/260 209/357/259 343/359/261 445/360/262
f 49/286/10 208/289/201 343/359/261 209/357/259
f 446/294/205 445/360/262 343/359/261 208/289/201
f 70/361/263 210/362/264 344/363/265 211/364/266
f 210/362/264 71/365/267 213/366/268 344/363/265
f 344/363/265 213/366/268 449/367/269 448/368/270
f 211/364/266 344/363/265 448/368/270 447/369/271
f 71/365/267 214/370/272 345/371/273 213/366/268
f 214/370/272 69/320/225 216/330/232 345/371/273
f 345/371/273 216/330/232 452/329/231 451/372/274
f 213/366/268 345/371/273 451/372/274 449/367/269
f 456/298/209 455/373/275 346/374/276 218/299/210
f 455/373/275 453/375/277 220/376/278 346/374/276
f 346/374/276 220/376/278 59/377/279 219/378/280
f 218/299/210 346/374/276 219/378/280 57/300/211
f 453/375/277 458/379/281 347/380/282 220/376/278
f 458/379/281 457/334/236 223/333/235 347/380/282
f 347/380/282 223/333/235 58/328/230 222/381/283
f 220/376/278 347/380/282 222/381/283 59/377/279
f 73/382/284 224/383/285 348/384/286 225/385/287
f 224/383/285 74/386/288 226/387/289 348/384/286
f 348/384/286 226/387/289 71/365/267 210/362/264
f 225/385/287 348/384/286 210/362/264 70/361/263
f 74/386/288 227/388/290 349/389/291 226/387/289
f 227/388/290 72/324/216 228/321/226 349/389/291
f 349/389/291 228/321/226 69/320/225 214/370/272
f 226/387/289 349/389/291 214/370/272 71/365/267
f 57/300/211 219/378/280 350/390/292 229/309/215
f 219/378/280 59/377/279 231/391/293 350/390/292
f 350/390/292 231/391/293 62/392/294 230/393/295
f 229/309/215 350/390/292 230/393/295 60/310/197
f 59/377/279 222/381/283 351/394/296 231/391/293
f 222/381/283 58/328/230 233/327/229 351/394/296
f 351/394/296 233/327/229 61/326/224 232/395/297
f 231/391/293 351/394/296 232/395/297 62/392/294
f 67/396/298 234/397/299 352/398/300 235/399/301
f 234/397/299 460/400/302 459/401/303 352/398/300
f 352/398/300 459/401/303 74/402/288 224/403/285
f 235/399/301 352/398/300 224/403/285 73/404/284
f 68/405/304 237/406/305 353/407/306 236/408/307
f 237/406/305 66/315/220 238/312/217 353/407/306
f 353/407/306 238/312/217 72/311/216 227/409/290
f 236/408/307 353/407/306 227/409/290 74/410/288
f 60/283/197 230/411/295 354/412/308 239/284/198
f 230/411/295 62/413/294 462/414/309 354/412/308
f 354/412/308 462/414/309 461/415/310 240/416/311
f 239/284/198 354/412/308 240/416/311 54/285/199
f 62/417/294 232/418/297 355/419/312 241/420/313
f 232/418/297 61/319/224 243/318/223 355/419/312
f 355/419/312 243/318/223 55/317/222 242/421/314
f 241/420/313 355/419/312 242/421/314 56/422/315
f 43/339/241 201/423/316 356/424/317 244/340/242
f 201/423/316 438/425/318 463/426/319 356/424/317
f 356/424/317 463/426/319 56/422/315 242/421/314
f 244/340/242 356/424/317 242/421/314 55/317/222
f 46/427/320 202/428/321 357/429/322 245/430/323
f 202/428/321 44/338/240 246/337/239 357/429/322
f 357/429/322 246/337/239 54/285/199 240/416/311
f 245/430/323 357/429/322 240/416/311 461/415/310
f 66/315/220 237/406/305 358/431/324 247/343/245
f 237/406/305 68/405/304 464/432/325 358/431/324
f 358/431/324 464/432/325 444/433/326 207/434/327
f 247/343/245 358/431/324 207/434/327 48/344/246
f 460/400/302 234/397/299 359/435/328 248/436/329
f 234/397/299 67/396/298 249/437/330 359/435/328
f 359/435/328 249/437/330 47/438/331 206/439/332
f 248/436/329 359/435/328 206/439/332 50/440/333
f 45/290/10 250/441/10 360/442/10 283/443/10
f 250/441/10 42/444/10 268/445/10 360/442/10
f 360/442/10 268/445/10 86/180/10 196/179/10
f 283/443/10 360/442/10 196/179/10 96/178/10
f 67/396/298 235/399/301 361/446/334 251/447/335
f 235/399/301 73/404/284 257/448/336 361/446/334
f 361/446/334 257/448/336 79/187/156 162/186/155
f 251/447/335 361/446/334 162/186/155 76/185/154
f 73/382/284 225/385/287 362/449/337 257/450/336
f 225/385/287 70/361/263 262/451/338 362/449/337
f 362/449/337 262/451/338 78/193/160 163/192/159
f 257/450/336 362/449/337 163/192/159 79/191/156
f 70/361/263 211/364/266 363/452/339 262/451/338
f 211/364/266 447/369/271 468/453/340 363/452/339
f 363/452/339 468/453/340 411/197/164 164/196/163
f 262/451/338 363/452/339 164/196/163 78/193/160
f 47/438/331 249/437/330 364/454/341 467/455/342
f 249/437/330 67/396/298 251/447/335 364/454/341
f 364/454/341 251/447/335 76/185/154 165/202/169
f 467/455/342 364/454/341 165/202/169 409/201/168
f 85/203/10 198/456/10 365/457/10 176/204/10
f 198/456/10 41/458/10 252/459/10 365/457/10
f 365/457/10 252/459/10 49/286/10 281/460/10
f 176/204/10 365/457/10 281/460/10 95/207/10
f 91/461/170 275/462/170 366/463/170 479/464/170
f 94/227/170 185/226/170 366/463/170 275/462/170
f 430/225/170 484/465/170 366/463/170 185/226/170
f 471/466/170 472/467/170 366/463/170 484/465/170
f 473/468/170 475/469/170 366/463/170 472/467/170
f 476/470/170 483/471/170 366/463/170 475/469/170
f 481/472/170 482/473/170 366/463/170 483/471/170
f 477/474/170 479/464/170 366/463/170 482/473/170
f 52/475/343 277/476/343 367/477/344 256/478/344
f 277/476/343 92/479/343 273/480/344 367/477/344
f 367/477/344 273/480/344 89/481/345 276/482/345
f 256/478/344 367/477/344 276/482/345 63/483/345
f 450/484/346 486/485/346 368/486/347 212/487/347
f 486/485/346 474/488/346 269/489/347 368/486/347
f 368/486/347 269/489/347 87/490/348 278/491/348
f 212/487/347 368/486/347 278/491/348 64/492/348
f 454/493/349 487/494/350 369/495/351 221/496/351
f 487/494/350 478/497/350 272/498/351 369/495/351
f 369/495/351 272/498/351 92/479/343 277/476/343
f 221/496/351 369/495/351 277/476/343 52/475/343
f 64/492/348 278/491/348 370/499/352 261/500/352
f 278/491/348 87/490/348 274/501/352 370/499/352
f 370/499/352 274/501/352 93/256/181 192/255/181
f 261/500/352 370/499/352 192/255/181 77/254/181
f 51/306/213 267/305/213 371/502/353 217/503/353
f 267/305/213 480/304/213 271/504/353 371/502/353
f 371/502/353 271/504/353 90/505/354 280/506/354
f 217/503/353 371/502/353 280/506/354 53/507/354
f 63/483/345 276/482/345 372/508/355 215/509/355
f 276/482/345 89/481/345 270/510/355 372/508/355
f 372/508/355 270/510/355 88/511/356 279/512/356
f 215/509/355 372/508/355 279/512/356 65/513/356
f 49/286/10 205/354/256 373/514/357 281/460/10
f 205/354/256 441/353/255 260/515/358 373/514/357
f 373/514/357 260/515/358 75/272/188 193/271/187
f 281/460/10 373/514/357 193/271/187 95/207/10
f 45/290/10 282/287/10 374/516/10 250/441/10
f 282/287/10 49/286/10 252/459/10 374/516/10
f 374/516/10 252/459/10 41/458/10 199/517/10
f 250/441/10 374/516/10 199/517/10 42/444/10
f 96/178/10 177/277/191 375/518/359 283/443/10
f 177/277/191 80/279/193 263/519/360 375/518/359
f 375/518/359 263/519/360 440/352/254 203/351/253
f 283/443/10 375/518/359 203/351/253 45/290/10
